<?xml version="1.0" encoding="UTF-8"?>
<graphml xmlns="http://graphml.graphdrawing.org/xmlns">
	<key id="name" for="node" attr.name="name" attr.type="string"/>
	<key id="artifact" for="edge" attr.name="artifact" attr.type="string"/>
	<graph id="PM" edgedefault="directed">
		<node id="1" labels=":Activity">
			<data key="name">others</data>
			<data key="labels">:Activity</data>
		</node>
		<node id="2" labels=":Activity">
			<data key="name">addDoc</data>
			<data key="labels">:Activity</data>
		</node>
		<node id="3" labels=":Activity">
			<data key="name">createControllers</data>
			<data key="labels">:Activity</data>
		</node>
		<node id="4" labels=":Activity">
			<data key="name">mergeBranch</data>
			<data key="labels">:Activity</data>
		</node>
		<node id="5" labels=":Activity">
			<data key="name">createViews</data>
			<data key="labels">:Activity</data>
		</node>
		<node id="6" labels=":Activity">
			<data key="name">initialize</data>
			<data key="labels">:Activity</data>
		</node>
		<edge id="7" source="5" target="3" label="LEADS_TO">
			<data key="artifact">Shopping Website_src_app_shopping-cart_shopping-list_shopping-list.component.scss.xes, Shopping Website_shoppingbackend_src_main_java_net_kzn_shoppingbackend_dao_CategoryDAO.java.xes, Shopping Website_src_app_shopping-cart_shopping-cart.component.spec.ts.xes, Shopping Website_src_app_shopping-cart_shopping-cart.component.scss.xes, Shopping Website_src_app_app.module.ts.xes, Shopping Website_onlineshopping_src_main_webapp_WEB-INF_views_page.jsp.xes, Shopping Website_server_db.json.xes, Shopping Website_onlineshopping_src_main_webapp_WEB-INF_dispatcher-servlet.xml.xes, Shopping Website_onlineshopping_pom.xml.xes, Shopping Website_src_app_services_products_products.service.spec.ts.xes, Shopping Website_angular.json.xes, Shopping Website_src_app_shopping-cart_shopping-list_shopping-list.component.html.xes, Shopping Website_src_app_services_carts_cart.service.spec.ts.xes, Shopping Website_src_app_app.component.html.xes, Shopping Website_src_app_shopping-cart_shopping-list_shopping-list.component.ts.xes, Shopping Website_shoppingbackend_src_main_java_net_kzn_shoppingbackend_daoimpl_CategoryDAOImpl.java.xes</data>
			<data key="label">LEADS_TO</data>
		</edge>
		<edge id="8" source="2" target="1" label="LEADS_TO">
			<data key="artifact">Shopping Website_README.md.xes</data>
			<data key="label">LEADS_TO</data>
		</edge>
		<edge id="9" source="6" target="1" label="LEADS_TO">
			<data key="artifact">Shopping Website_shoppingbackend_src_main_java_net_kzn_shoppingbackend_dao_CategoryDAO.java.xes, Shopping Website_app_routes.php.xes, Shopping Website_resources_views_cart_index.html.xes, Shopping Website_shoppingbackend_src_test_java_net_kzn_shoppingbackend_test_CategoryTestCase.java.xes, Shopping Website_shoppingbackend_src_main_java_net_kzn_shoppingbackend_daoimpl_CategoryDAOImpl.java.xes</data>
			<data key="label">LEADS_TO</data>
		</edge>
		<edge id="10" source="4" target="1" label="LEADS_TO">
			<data key="artifact">Shopping Website_Online Shopping_build_bootstrap-less_mixins_progress-bar.less.xes, Shopping Website_Online Shopping_dist_img_photo3.jpg.xes, Shopping Website_onlineshopping_src_main_java_net_kzn_onlineshopping_controller_JsonDataController.java.xes, Shopping Website_Online Shopping_plugins_ckeditor_lang_mn.js.xes, Shopping Website_Online Shopping_pages_UI_modals.html.xes, Shopping Website_Online Shopping_build_bootstrap-less_variables.less.xes, Shopping Website_Online Shopping_build_bootstrap-less_mixins_table-row.less.xes, Shopping Website_Online Shopping_build_bootstrap-less_mixins_forms.less.xes, Shopping Website_Online Shopping_pages_tables_simple.html.xes, Shopping Website_Online Shopping_build_less_social-widgets.less.xes, Shopping Website_Online Shopping_pages_examples_register.html.xes, Shopping Website_src_app_services_carts_cart.ts.xes, Shopping Website_Online Shopping_dist_img_user7-128x128.jpg.xes, Shopping Website_src_app_shopping-cart_cart_cart.component.scss.xes, Shopping Website_Online Shopping_plugins_bootstrap-wysihtml5_bootstrap3-wysihtml5.all.js.xes, Shopping Website_Online Shopping_bower.json.xes, Shopping Website_Online Shopping_build_less_skins_skin-black.less.xes, Shopping Website_Online Shopping_.jshintrc.xes, Shopping Website_Online Shopping_build_bootstrap-less_mixins_alerts.less.xes, Shopping Website_Online Shopping_build_less_core.less.xes, Shopping Website_Online Shopping_dist_js_app.js.xes, Shopping Website_Online Shopping_build_less_forms.less.xes, Shopping Website_Online Shopping_dist_css_skins_skin-green-light.css.xes, Shopping Website_Online Shopping_build_less_invoice.less.xes, Shopping Website_Online Shopping_build_less_direct-chat.less.xes, Shopping Website_onlineshopping_src_main_webapp_WEB-INF_views_home.jsp.xes, Shopping Website_Online Shopping_dist_img_avatar04.png.xes, Shopping Website_Online Shopping_plugins_ckeditor_lang_bs.js.xes, Shopping Website_Online Shopping_dist_img_user1-128x128.jpg.xes, Shopping Website_Online Shopping_dist_css_skins_skin-red-light.min.css.xes, Shopping Website_onlineshopping_src_main_webapp_assets_css_myapp.css.xes, Shopping Website_Online Shopping_build_bootstrap-less_mixins_opacity.less.xes, Shopping Website_onlineshopping_src_main_webapp_WEB-INF_views_singleProduct.jsp.xes, Shopping Website_Online Shopping_build_less_modal.less.xes, Shopping Website_onlineshopping_src_main_java_net_kzn_onlineshopping_controller_PageController.java.xes, Shopping Website_Online Shopping_dist_css_skins_skin-black-light.css.xes, Shopping Website_Online Shopping_build_less_.csslintrc.xes, Shopping Website_Online Shopping_build_less_skins_skin-yellow.less.xes, Shopping Website_Online Shopping_pages_examples_blank.html.xes, Shopping Website_Online Shopping_dist_css_skins_skin-yellow.css.xes, Shopping Website_Online Shopping_build_less_skins_skin-purple.less.xes, Shopping Website_Online Shopping_dist_css_skins_skin-blue-light.css.xes, Shopping Website_Online Shopping_build_less_print.less.xes, Shopping Website_Online Shopping_dist_img_credit_paypal2.png.xes, Shopping Website_Online Shopping_pages_forms_editors.html.xes, Shopping Website_shoppingbackend_src_main_java_net_kzn_shoppingbackend_dto_Product.java.xes, Shopping Website_Online Shopping_dist_img_avatar2.png.xes, Shopping Website_Online Shopping_dist_css_skins__all-skins.min.css.xes, Shopping Website_Online Shopping_documentation_docs.js.xes, Shopping Website_Online Shopping_dist_img_user5-128x128.jpg.xes, Shopping Website_Online Shopping_documentation_build_include_dependencies.html.xes, Shopping Website_Online Shopping_build_bootstrap-less_mixins_vendor-prefixes.less.xes, Shopping Website_Online Shopping_plugins_ckeditor_lang_hi.js.xes, Shopping Website_Online Shopping_plugins_ckeditor_lang_gl.js.xes, Shopping Website_Online Shopping_build_bootstrap-less_mixins_hide-text.less.xes, Shopping Website_Online Shopping_bootstrap_js_bootstrap.js.xes, Shopping Website_Online Shopping_plugins_ckeditor_lang_eo.js.xes, Shopping Website_Online Shopping_Models_EditProducts.cs.xes, Shopping Website_Online Shopping_plugins_ckeditor_lang_da.js.xes, Shopping Website_Online Shopping_build_less_products.less.xes, Shopping Website_shoppingbackend_src_main_java_net_kzn_shoppingbackend_dto_OrderItem.java.xes, Shopping Website_Online Shopping_pages_examples_500.html.xes, Shopping Website_Online Shopping_dist_img_credit_paypal.png.xes, Shopping Website_Online Shopping_documentation_build_include_advice.html.xes, Shopping Website_src_app_app.component.ts.xes, Shopping Website_Online Shopping_pages_examples_login.html.xes, Shopping Website_Online Shopping_pages_layout_fixed.html.xes, Shopping Website_Online Shopping_build_bootstrap-less_mixins_responsive-visibility.less.xes, Shopping Website_src_app_shopping-cart_shopping-cart.module.ts.xes, Shopping Website_LICENSE.xes, Shopping Website_Online Shopping_build_less_labels.less.xes, Shopping Website_Online Shopping_plugins_ckeditor_lang_fa.js.xes, Shopping Website_Online Shopping_dist_css_skins_skin-black-light.min.css.xes, Shopping Website_Online Shopping_build_bootstrap-less_mixins_nav-divider.less.xes, Shopping Website_Online Shopping_dist_img_credit_mestro.png.xes, Shopping Website_onlineshopping_src_main_webapp_WEB-INF_views_page.jsp.xes, Shopping Website_src_app_shopping-cart_cart_cart.component.html.xes, Shopping Website_Online Shopping_plugins_ckeditor_lang_pl.js.xes, Shopping Website_Online Shopping_plugins_ckeditor_lang_cy.js.xes, Shopping Website_Online Shopping_bootstrap_fonts_glyphicons-halflings-regular.ttf.xes, Shopping Website_Online Shopping_pages_mailbox_compose.html.xes, Shopping Website_Online Shopping_dist_img_photo1.png.xes, Shopping Website_Online Shopping_build_bootstrap-less_mixins_list-group.less.xes, Shopping Website_Online Shopping_plugins_ckeditor_lang_it.js.xes, Shopping Website_Online Shopping_dist_img_photo2.png.xes, Shopping Website_Online Shopping_dist_img_icons.png.xes, Shopping Website_Online Shopping_Views_Product_ShowProduct.cshtml.xes, Shopping Website_Online Shopping_dist_img_user8-128x128.jpg.xes, Shopping Website_Online Shopping_App_Start_RouteConfig.cs.xes, Shopping Website_Online Shopping_plugins_ckeditor_lang_fo.js.xes, Shopping Website_Online Shopping_build_bootstrap-less_mixins.less.xes, Shopping Website_Online Shopping_build_bootstrap-less_mixins_image.less.xes, Shopping Website_Online Shopping_plugins_ckeditor_lang_eu.js.xes, Shopping Website_onlineshopping_src_main_java_net_kzn_onlineshopping_model_CheckoutModel.java.xes, Shopping Website_Online Shopping_documentation_build_include_download.html.xes, Shopping Website_Online Shopping_plugins_ckeditor_LICENSE.md.xes, Shopping Website_Online Shopping_plugins_ckeditor_lang_es.js.xes, Shopping Website_Online Shopping_dist_css_skins_skin-red-light.css.xes, Shopping Website_Online Shopping_documentation_index.html.xes, Shopping Website_Online Shopping_pages_examples_lockscreen.html.xes, Shopping Website_Online Shopping_bootstrap_fonts_glyphicons-halflings-regular.svg.xes, Shopping Website_shoppingbackend_src_main_java_net_kzn_shoppingbackend_dao_CartLineDAO.java.xes, Shopping Website_Online Shopping_build_less_boxes.less.xes, Shopping Website_Online Shopping_plugins_ckeditor_lang_fr.js.xes, Shopping Website_Online Shopping_build_bootstrap-less_mixins_grid.less.xes, Shopping Website_Online Shopping_plugins_bootstrap-slider_slider.css.xes, Shopping Website_Online Shopping_documentation_build_include_implementations.html.xes, Shopping Website_Online Shopping_documentation_build_index.html.xes, Shopping Website_Online Shopping_documentation_build_include_introduction.html.xes, Shopping Website_Online Shopping_Views__ViewStart.cshtml.xes, Shopping Website_Online Shopping_Model1.edmx.xes, Shopping Website_Online Shopping_dist_img_avatar.png.xes, Shopping Website_Online Shopping_plugins_ckeditor_lang_nl.js.xes, Shopping Website_Online Shopping_pages_forms_general.html.xes, Shopping Website_Online Shopping_plugins_ckeditor_lang_ku.js.xes, Shopping Website_Online Shopping_build_less_lockscreen.less.xes, Shopping Website_onlineshopping_src_main_java_net_kzn_onlineshopping_handler_CheckoutHandler.java.xes, Shopping Website_Online Shopping_build_bootstrap-less_mixins_resize.less.xes, Shopping Website_Online Shopping_documentation_build_include_adminlte-options.html.xes, Shopping Website_src_app_services_carts_cart.service.ts.xes, Shopping Website_Online Shopping_build_less_sidebar-mini.less.xes, Shopping Website_Online Shopping_pages_mailbox_mailbox.html.xes, Shopping Website_Online Shopping_build_bootstrap-less_mixins_background-variant.less.xes, Shopping Website_Online Shopping_plugins_ckeditor_lang_en-au.js.xes, Shopping Website_onlineshopping_src_main_webapp_WEB-INF_views_flows_cart_checkout_checkout-flow.xml.xes, Shopping Website_Online Shopping_composer.json.xes, Shopping Website_Online Shopping_dist_img_credit_mastercard.png.xes, Shopping Website_Online Shopping_plugins_bootstrap-wysihtml5_bootstrap3-wysihtml5.min.css.xes, Shopping Website_resources_views_order_index.html.xes, Shopping Website_Online Shopping_dist_css_skins_skin-purple.css.xes, Shopping Website_Online Shopping_bootstrap_css_bootstrap.min.css.xes, Shopping Website_Online Shopping_bootstrap_fonts_glyphicons-halflings-regular.eot.xes, Shopping Website_Online Shopping_plugins_ckeditor_lang_th.js.xes, Shopping Website_Online Shopping_dist_css_skins_skin-green-light.min.css.xes, Shopping Website_Online Shopping_plugins_ckeditor_build-config.js.xes, Shopping Website_Online Shopping_plugins_ckeditor_lang_ka.js.xes, Shopping Website_Online Shopping_dist_img_boxed-bg.jpg.xes, Shopping Website_Online Shopping_build_bootstrap-less_mixins_pagination.less.xes, Shopping Website_Online Shopping_build_bootstrap-less_mixins_grid-framework.less.xes, Shopping Website_Online Shopping_plugins_ckeditor_lang_en.js.xes, Shopping Website_Online Shopping_documentation_build_include_components.html.xes, Shopping Website_shoppingbackend_src_main_java_net_kzn_shoppingbackend_dto_Category.java.xes, Shopping Website_Online Shopping_build_less_timeline.less.xes, Shopping Website_Online Shopping_build_less_AdminLTE.less.xes, Shopping Website_Online Shopping_dist_img_credit_american-express.png.xes, Shopping Website_Online Shopping_build_bootstrap-less_mixins_text-overflow.less.xes, Shopping Website_Online Shopping_build_bootstrap-less_mixins_size.less.xes, Shopping Website_shoppingbackend_src_main_java_net_kzn_shoppingbackend_daoimpl_CartLineDAOImpl.java.xes, Shopping Website_src_app_services_index.ts.xes, Shopping Website_shoppingbackend_src_main_java_net_kzn_shoppingbackend_dto_Address.java.xes, Shopping Website_Online Shopping_plugins_ckeditor_lang_km.js.xes, Shopping Website_Online Shopping_plugins_ckeditor_lang_ko.js.xes, Shopping Website_shoppingbackend_src_main_java_net_kzn_shoppingbackend_daoimpl_UserDAOImpl.java.xes, Shopping Website_Online Shopping_build_bootstrap-less_mixins_labels.less.xes, Shopping Website_Online Shopping_build_less_miscellaneous.less.xes, Shopping Website_drinks.txt.xes, Shopping Website_Online Shopping_pages_UI_timeline.html.xes, Shopping Website_Online Shopping_plugins_ckeditor_lang_gu.js.xes, Shopping Website_Online Shopping_plugins_ckeditor_lang_lv.js.xes, Shopping Website_Online Shopping_build_bootstrap-less_mixins_text-emphasis.less.xes, Shopping Website_src_app_shopping-cart_cart_cart.component.ts.xes, Shopping Website_Online Shopping_plugins_ckeditor_lang_pt-br.js.xes, Shopping Website_Online Shopping_dist_css_skins_skin-blue.css.xes, Shopping Website_Online Shopping_build_less_select2.less.xes, Shopping Website_Online Shopping_pages_widgets.html.xes, Shopping Website_Online Shopping_plugins_ckeditor_lang_id.js.xes, Shopping Website_Online Shopping_bootstrap_css_bootstrap.css.xes, Shopping Website_Online Shopping_plugins_ckeditor_lang_ja.js.xes, Shopping Website_Online Shopping_dist_js_pages_dashboard.js.xes, Shopping Website_Online Shopping_plugins_ckeditor_lang_el.js.xes, Shopping Website_Online Shopping_dist_css_skins_skin-blue-light.min.css.xes, Shopping Website_Online Shopping_build_less_bootstrap-social.less.xes, Shopping Website_Online Shopping_LICENSE.xes, Shopping Website_Online Shopping_build_bootstrap-less_mixins_buttons.less.xes, Shopping Website_Online Shopping_plugins_ckeditor_ckeditor.js.xes, Shopping Website_Online Shopping_pages_examples_404.html.xes, Shopping Website_Online Shopping_plugins_ckeditor_adapters_jquery.js.xes, Shopping Website_Online Shopping_build_less_skins_skin-blue.less.xes, Shopping Website_Online Shopping_build_less_alerts.less.xes, Shopping Website_onlineshopping_src_main_java_net_kzn_onlineshopping_controller_CartController.java.xes, Shopping Website_Online Shopping_build_less_skins_skin-red-light.less.xes, Shopping Website_Online Shopping_plugins_ckeditor_lang_en-gb.js.xes, Shopping Website_Online Shopping_build_less_profile.less.xes, Shopping Website_Online Shopping_plugins_chartjs_Chart.js.xes, Shopping Website_Online Shopping_build_less_skins_skin-black-light.less.xes, Shopping Website_Online Shopping_build_bootstrap-less_mixins_border-radius.less.xes, Shopping Website_app_Controllers_OrderController.php.xes, Shopping Website_Online Shopping_plugins_ckeditor_lang_ca.js.xes, Shopping Website_Online Shopping_pages_layout_collapsed-sidebar.html.xes, Shopping Website_Online Shopping_plugins_ckeditor_lang_sk.js.xes, Shopping Website_Online Shopping_Gruntfile.js.xes, Shopping Website_Online Shopping_plugins_ckeditor_lang_hu.js.xes, Shopping Website_Online Shopping_Views_Shared__LayoutMaster.cshtml.xes, Shopping Website_Online Shopping_plugins_ckeditor_lang_et.js.xes, Shopping Website_Online Shopping_plugins_ckeditor_config.js.xes, Shopping Website_Online Shopping_dist_js_app.min.js.xes, Shopping Website_migration.sql.xes, Shopping Website_Online Shopping_plugins_ckeditor_lang_mk.js.xes, Shopping Website_Online Shopping_build_less_control-sidebar.less.xes, Shopping Website_Online Shopping_dist_css_skins_skin-yellow.min.css.xes, Shopping Website_Online Shopping_build_less_skins_skin-blue-light.less.xes, Shopping Website_Online Shopping_Views_Shared__Layout.cshtml.xes, Shopping Website_Online Shopping_dist_img_credit_visa.png.xes, Shopping Website_Online Shopping_build_less_mailbox.less.xes, Shopping Website_Online Shopping_build_less_variables.less.xes, Shopping Website_Online Shopping_plugins_bootstrap-wysihtml5_bootstrap3-wysihtml5.css.xes, Shopping Website_Online Shopping_pages_examples_profile.html.xes, Shopping Website_Online Shopping_build_less_mixins.less.xes, Shopping Website_Online Shopping_build_less_skins_skin-yellow-light.less.xes, Shopping Website_Online Shopping_build_less_dropdown.less.xes, Shopping Website_shoppingbackend_src_main_java_net_kzn_shoppingbackend_daoimpl_ProductDAOImpl.java.xes, Shopping Website_Online Shopping_pages_charts_flot.html.xes, Shopping Website_Online Shopping_plugins_ckeditor_lang_sv.js.xes, Shopping Website_Online Shopping_pages_calendar.html.xes, Shopping Website_Online Shopping_build_bootstrap-less_mixins_gradients.less.xes, Shopping Website_onlineshopping_src_main_java_net_kzn_onlineshopping_controller_GlobalController.java.xes, Shopping Website_Online Shopping_plugins_ckeditor_lang_sl.js.xes, Shopping Website_Online Shopping_plugins_ckeditor_lang_sr.js.xes, Shopping Website_Online Shopping_pages_examples_invoice-print.html.xes, Shopping Website_Online Shopping_bootstrap_js_bootstrap.min.js.xes, Shopping Website_shoppingbackend_src_main_java_net_kzn_shoppingbackend_dao_ProductDAO.java.xes, Shopping Website_Online Shopping_build_less_progress-bars.less.xes, Shopping Website_Online Shopping_dist_js_pages_dashboard2.js.xes, Shopping Website_Online Shopping_pages_forms_advanced.html.xes, Shopping Website_Online Shopping_pages_layout_top-nav.html.xes, Shopping Website_Online Shopping_dist_css_skins_skin-red.min.css.xes, Shopping Website_Online Shopping_bootstrap_fonts_glyphicons-halflings-regular.woff.xes, Shopping Website_Online Shopping_build_bootstrap-less_mixins_nav-vertical-align.less.xes, Shopping Website_Online Shopping_build_bootstrap-less_mixins_tab-focus.less.xes, Shopping Website_Online Shopping_build_less_info-box.less.xes, Shopping Website_Online Shopping_plugins_ckeditor_lang_ru.js.xes, Shopping Website_onlineshopping_src_main_webapp_WEB-INF_views_shared_footer.jsp.xes, Shopping Website_Online Shopping_build_less_table.less.xes, Shopping Website_onlineshopping_src_main_webapp_WEB-INF_views_flows_flows-shared_header.jsp.xes, Shopping Website_Online Shopping_pages_UI_icons.html.xes, Shopping Website_src_app_shopping-cart_shopping-cart.component.ts.xes, Shopping Website_Online Shopping_dist_css_AdminLTE.css.xes, Shopping Website_Online Shopping_plugins_ckeditor_lang_sr-latn.js.xes, Shopping Website_src_app_services_products_product.ts.xes, Shopping Website_onlineshopping_src_main_webapp_assets_js_myapp.js.xes, Shopping Website_Online Shopping_dist_css_skins_skin-green.min.css.xes, Shopping Website_Online Shopping_pages_layout_boxed.html.xes, Shopping Website_Online Shopping_Views_Product_CreateProduct.cshtml.xes, Shopping Website_Online Shopping_documentation_style.css.xes, Shopping Website_Online Shopping_plugins_ckeditor_lang_ro.js.xes, Shopping Website_Online Shopping_build_less_skins_skin-green-light.less.xes, Shopping Website_README.md.xes, Shopping Website_Online Shopping_documentation_build_include_faq.html.xes, Shopping Website_Online Shopping_build_less_skins_skin-purple-light.less.xes, Shopping Website_Online Shopping_build_bootstrap-less_mixins_panels.less.xes, Shopping Website_Online Shopping_Views_Product_Details.cshtml.xes, Shopping Website_Online Shopping_dist_css_skins_skin-red.css.xes, Shopping Website_src_app_services_products_products.service.ts.xes, Shopping Website_Online Shopping_plugins_ckeditor_contents.css.xes, Shopping Website_Online Shopping_plugins_ckeditor_lang_lt.js.xes, Shopping Website_ProjectWork.xes, Shopping Website_Online Shopping_package-lock.json.xes, Shopping Website_Online Shopping_bootstrap_js_npm.js.xes, Shopping Website_Online Shopping_build_less_sidebar.less.xes, Shopping Website_Online Shopping_plugins_ckeditor_lang_fr-ca.js.xes, Shopping Website_Online Shopping_documentation_build_include_upgrade.html.xes, Shopping Website_Online Shopping_plugins_ckeditor_lang_pt.js.xes, Shopping Website_Online Shopping_pages_mailbox_read-mail.html.xes, Shopping Website_shoppingbackend_databaseQueries.sql.xes, Shopping Website_src_app_shopping-cart_shopping-filters_shopping-filters.component.ts.xes, Shopping Website_Online Shopping_package.json.xes, Shopping Website_Online Shopping_plugins_ckeditor_README.md.xes, Shopping Website_Online Shopping_plugins_bootstrap-slider_bootstrap-slider.js.xes, Shopping Website_Online Shopping_dist_css_skins_skin-green.css.xes, Shopping Website_src_app_services_carts_Item.ts.xes, Shopping Website_Online Shopping_build_less_header.less.xes, Shopping Website_Online Shopping_dist_css_AdminLTE.min.css.xes, Shopping Website_onlineshopping_src_main_java_net_kzn_onlineshopping_service_CartService.java.xes, Shopping Website_Online Shopping_build_less_carousel.less.xes, Shopping Website_Online Shopping_dist_css_skins_skin-purple.min.css.xes, Shopping Website_Online Shopping_build_less_navs.less.xes, Shopping Website_Online Shopping_plugins_ckeditor_lang_sq.js.xes, Shopping Website_Online Shopping_plugins_ckeditor_lang_hr.js.xes, Shopping Website_Online Shopping_plugins_ckeditor_lang_nb.js.xes, Shopping Website_Online Shopping_plugins_ckeditor_lang_fi.js.xes, Shopping Website_Online Shopping_bootstrap_css_bootstrap.css.map.xes, Shopping Website_Online Shopping_tblProduct.cs.xes, Shopping Website_Online Shopping_build_less_skins_skin-green.less.xes, Shopping Website_Online Shopping_plugins_ckeditor_lang_no.js.xes, Shopping Website_Online Shopping_pages_charts_morris.html.xes, Shopping Website_Online Shopping_build_less_callout.less.xes, Shopping Website_Online Shopping_build_less_404_500_errors.less.xes, Shopping Website_Online Shopping_dist_css_skins_skin-yellow-light.min.css.xes, Shopping Website_Online Shopping_plugins_ckeditor_lang_en-ca.js.xes, Shopping Website_Online Shopping_plugins_ckeditor_lang_bg.js.xes, Shopping Website_onlineshopping_src_main_webapp_WEB-INF_views_cart.jsp.xes, Shopping Website_shoppingbackend_src_main_java_net_kzn_shoppingbackend_dao_UserDAO.java.xes, Shopping Website_Online Shopping_build_less_buttons.less.xes, Shopping Website_Online Shopping_dist_img_avatar5.png.xes, Shopping Website_Online Shopping_dist_img_user4-128x128.jpg.xes, Shopping Website_Online Shopping_dist_css_skins_skin-purple-light.css.xes, Shopping Website_Online Shopping_dist_css_skins_skin-yellow-light.css.xes, Shopping Website_Online Shopping_build_less_skins_skin-red.less.xes, Shopping Website_Online Shopping_pages_tables_data.html.xes, Shopping Website_Online Shopping_build_less_skins__all-skins.less.xes, Shopping Website_Online Shopping_plugins_chartjs_Chart.min.js.xes, Shopping Website_Online Shopping_plugins_ckeditor_lang_is.js.xes, Shopping Website_Online Shopping_pages_UI_general.html.xes, Shopping Website_Online Shopping_dist_img_default-50x50.gif.xes, Shopping Website_Online Shopping_Views_Product_Edit.cshtml.xes, Shopping Website_Online Shopping_dist_img_user3-128x128.jpg.xes, Shopping Website_app_Models_Product.php.xes, Shopping Website_Online Shopping_plugins_ckeditor_CHANGES.md.xes, Shopping Website_onlineshopping_src_main_java_net_kzn_onlineshopping_handler_RegisterHandler.java.xes, Shopping Website_src_app_shopping-cart_shopping-list_shopping-list.component.ts.xes, Shopping Website_Online Shopping_build_less_users-list.less.xes, Shopping Website_Online Shopping_dist_js_demo.js.xes, Shopping Website_Online Shopping_dist_css_skins_skin-blue.min.css.xes, Shopping Website_Online Shopping_pages_UI_sliders.html.xes, Shopping Website_Online Shopping_plugins_ckeditor_lang_si.js.xes, Shopping Website_Online Shopping_bootstrap_fonts_glyphicons-halflings-regular.woff2.xes, Shopping Website_Online Shopping_build_bootstrap-less_mixins_center-block.less.xes, Shopping Website_Online Shopping_documentation_build_include_layout.html.xes, Shopping Website_Online Shopping_plugins_ckeditor_lang_ar.js.xes, Shopping Website_Online Shopping_dist_css_skins_skin-black.css.xes, Shopping Website_Online Shopping_dist_img_user6-128x128.jpg.xes, Shopping Website_Online Shopping_plugins_ckeditor_lang_de.js.xes, Shopping Website_Online Shopping_dist_img_boxed-bg.png.xes, Shopping Website_Online Shopping_plugins_ckeditor_lang_cs.js.xes, Shopping Website_Online Shopping_Online Shopping.csproj.xes, Shopping Website_Online Shopping_plugins_ckeditor_lang_af.js.xes, Shopping Website_Online Shopping_build_less_fullcalendar.less.xes, Shopping Website_Online Shopping_plugins_ckeditor_lang_he.js.xes, Shopping Website_Online Shopping_pages_examples_invoice.html.xes, Shopping Website_Online Shopping_build_bootstrap-less_mixins_reset-filter.less.xes, Shopping Website_Online Shopping_plugins_ckeditor_lang_bn.js.xes, Shopping Website_onlineshopping_src_main_webapp_WEB-INF_views_login.jsp.xes, Shopping Website_Online Shopping_dist_img_credit_cirrus.png.xes, Shopping Website_Online Shopping_documentation_build_include_plugins.html.xes, Shopping Website_Online Shopping_dist_css_skins_skin-purple-light.min.css.xes, Shopping Website_Online Shopping_dist_img_user2-160x160.jpg.xes, Shopping Website_Online Shopping_plugins_bootstrap-wysihtml5_bootstrap3-wysihtml5.all.min.js.xes, Shopping Website_Online Shopping_pages_charts_chartjs.html.xes, Shopping Website_Online Shopping_dist_img_avatar3.png.xes, Shopping Website_Online Shopping_documentation_build_include_license.html.xes, Shopping Website_Online Shopping_dist_css_skins__all-skins.css.xes, Shopping Website_Online Shopping_documentation_build_include_browsers.html.xes, Shopping Website_Online Shopping_plugins_ckeditor_lang_ms.js.xes, Shopping Website_Online Shopping_dist_css_skins_skin-black.min.css.xes, Shopping Website_Online Shopping_build_bootstrap-less_mixins_clearfix.less.xes, Shopping Website_Online Shopping_pages_charts_inline.html.xes, Shopping Website_Online Shopping_build_less_small-box.less.xes, Shopping Website_Online Shopping_build_less_login_and_register.less.xes, Shopping Website_Online Shopping_dist_img_photo4.jpg.xes, Shopping Website_Online Shopping_pages_UI_buttons.html.xes</data>
			<data key="label">LEADS_TO</data>
		</edge>
		<edge id="11" source="3" target="5" label="LEADS_TO">
			<data key="artifact">Shopping Website_Online Shopping_Controllers_RegisterController.cs.xes, Shopping Website_Online Shopping_Views_Home_Index.cshtml.xes, Shopping Website_Online Shopping DAL_Model1.Context.cs.xes, Shopping Website_Online Shopping_Views_Register_Register.cshtml.xes, Shopping Website_Online Shopping_Models_RegisterModel.cs.xes, Shopping Website_Online Shopping DAL_Online Shopping DAL.csproj.xes, Shopping Website_Online Shopping_Views_Shared__LayoutMaster.cshtml.xes, Shopping Website_src_app_shopping-cart_shopping-cart.component.html.xes, Shopping Website_Online Shopping DAL_tblUser.cs.xes, Shopping Website_src_app_shopping-cart_shopping-cart.component.ts.xes, Shopping Website_src_app_shopping-cart_shopping-list_shopping-list.component.ts.xes, Shopping Website_Online Shopping DAL_Model1.edmx.diagram.xes, Shopping Website_Online Shopping DAL_Model1.edmx.xes, Shopping Website_Online Shopping_Online Shopping.csproj.xes</data>
			<data key="label">LEADS_TO</data>
		</edge>
		<edge id="12" source="3" target="4" label="LEADS_TO">
			<data key="artifact">Shopping Website_Online Shopping_Controllers_ProductController.cs.xes, Shopping Website_Online Shopping_Models_ProductModel.cs.xes, Shopping Website_Online Shopping_tblProduct.cs.xes</data>
			<data key="label">LEADS_TO</data>
		</edge>
		<edge id="13" source="1" target="5" label="LEADS_TO">
			<data key="artifact">Shopping Website_src_app_shopping-cart_shopping-list_shopping-list.component.scss.xes, Shopping Website_src_app_shopping-cart_cart_cart.component.scss.xes, Shopping Website_onlineshopping_src_main_webapp_WEB-INF_views_home.jsp.xes, Shopping Website_src_app_navbar_navbar.component.scss.xes, Shopping Website_shoppingbackend_src_main_java_net_kzn_shoppingbackend_dao_CategoryDAO.java.xes, Shopping Website_onlineshopping_src_main_webapp_WEB-INF_views_listProducts.jsp.xes, Shopping Website_src_app_shopping-cart_shopping-cart.component.scss.xes, Shopping Website_src_app_shopping-cart_shopping-cart.module.ts.xes, Shopping Website_onlineshopping_src_main_webapp_WEB-INF_views_page.jsp.xes, Shopping Website_src_app_shopping-cart_cart_cart.component.html.xes, Shopping Website_shoppingbackend_pom.xml.xes, Shopping Website_src_app_navbar_navbar.component.html.xes, Shopping Website_onlineshopping_src_main_webapp_WEB-INF_views_shared_navbar.jsp.xes, Shopping Website_src_app_shopping-cart_cart_cart.component.ts.xes, Shopping Website_onlineshopping_pom.xml.xes, Shopping Website_main.css.xes, Shopping Website_index.html.xes, Shopping Website_onlineshopping_src_main_webapp_WEB-INF_views_shared_footer.jsp.xes, Shopping Website_onlineshopping_src_main_webapp_assets_js_myapp.js.xes, Shopping Website_src_app_shopping-cart_shopping-filters_shopping-filters.component.ts.xes, Shopping Website_src_app_shopping-cart_shopping-list_shopping-list.component.html.xes, Shopping Website_onlineshopping_.settings_org.eclipse.wst.common.component.xes, Shopping Website_shoppingbackend_src_main_java_net_kzn_shoppingbackend_daoimpl_CategoryDAOImpl.java.xes</data>
			<data key="label">LEADS_TO</data>
		</edge>
		<edge id="14" source="1" target="4" label="LEADS_TO">
			<data key="artifact">Shopping Website_src_app_shopping-cart_shopping-cart.module.ts.xes, Shopping Website_onlineshopping_src_main_webapp_WEB-INF_views_page.jsp.xes, Shopping Website_Online Shopping_Views_Product_ShowProduct.cshtml.xes, Shopping Website_onlineshopping_src_main_java_net_kzn_onlineshopping_controller_CartController.java.xes, Shopping Website_Email.xes, Shopping Website_onlineshopping_src_main_webapp_assets_js_myapp.js.xes, Shopping Website_Online Shopping_Views_Product_CreateProduct.cshtml.xes, Shopping Website_README.md.xes, Shopping Website_ProjectWork.xes, Shopping Website_onlineshopping_src_main_java_net_kzn_onlineshopping_service_CartService.java.xes</data>
			<data key="label">LEADS_TO</data>
		</edge>
		<edge id="15" source="5" target="1" label="LEADS_TO">
			<data key="artifact">Shopping Website_Online Shopping DAL_Class1.cs.xes, Shopping Website_Online Shopping_Views_Home_Contact.cshtml.xes, Shopping Website_Online Shopping_Controllers_ProductController.cs.xes, Shopping Website_Online Shopping_Views_Home_Index.cshtml.xes, Shopping Website_Online Shopping_Controllers_HomeController.cs.xes, Shopping Website_src_app_shopping-cart_shopping-cart.component.scss.xes, Shopping Website_src_app_shopping-cart_shopping-cart.module.ts.xes, Shopping Website_onlineshopping_src_main_webapp_WEB-INF_views_page.jsp.xes, Shopping Website_Online Shopping_Views_Product_ShowProduct.cshtml.xes, Shopping Website_Online Shopping_packages.config.xes, Shopping Website_Online Shopping DAL_Online Shopping DAL.csproj.xes, Shopping Website_main.css.xes, Shopping Website_index.html.xes, Shopping Website_src_app_shopping-cart_shopping-cart.component.html.xes, Shopping Website_Online Shopping_Models_ProductModel.cs.xes, Shopping Website_src_app_shopping-cart_shopping-cart.component.ts.xes, Shopping Website_onlineshopping_src_main_webapp_assets_js_myapp.js.xes, Shopping Website_Online Shopping_Web.config.xes, Shopping Website_src_app_shopping-cart_shopping-filters_shopping-filters.component.ts.xes, Shopping Website_src_app_shopping-cart_shopping-list_shopping-list.component.html.xes, Shopping Website_Online Shopping_Model1.cs.xes, Shopping Website_Online Shopping_Views_Home_About.cshtml.xes, Shopping Website_Online Shopping_Online Shopping.csproj.xes</data>
			<data key="label">LEADS_TO</data>
		</edge>
		<edge id="16" source="4" target="2" label="LEADS_TO">
			<data key="artifact">Shopping Website_src_app_shopping-cart_cart_cart.component.ts.xes</data>
			<data key="label">LEADS_TO</data>
		</edge>
		<edge id="17" source="3" target="1" label="LEADS_TO">
			<data key="artifact">Shopping Website_onlineshopping_src_main_webapp_WEB-INF_views_page.jsp.xes, Shopping Website_onlineshopping_src_main_webapp_WEB-INF_dispatcher-servlet.xml.xes, Shopping Website_onlineshopping_pom.xml.xes</data>
			<data key="label">LEADS_TO</data>
		</edge>
		<edge id="18" source="1" target="6" label="LEADS_TO">
			<data key="artifact">Shopping Website_shoppingbackend_src_main_java_net_kzn_shoppingbackend_dto_Product.java.xes, Shopping Website_resources_views_order_index.html.xes, Shopping Website_onlineshopping_src_main_webapp_WEB-INF_dispatcher-servlet.xml.xes, Shopping Website_app_Controllers_OrderController.php.xes, Shopping Website_shoppingbackend_src_main_java_net_kzn_shoppingbackend_dao_ProductDAO.java.xes, Shopping Website_app_routes.php.xes, Shopping Website_shoppingbackend_src_test_java_net_kzn_shoppingbackend_test_ProductTestCase.java.xes, Shopping Website_shoppingbackend_src_main_java_net_kzn_shoppingbackend_dao_ProductDAOImpl.java.xes</data>
			<data key="label">LEADS_TO</data>
		</edge>
		<edge id="19" source="5" target="4" label="LEADS_TO">
			<data key="artifact">Shopping Website_src_app_shopping-cart_cart_cart.component.scss.xes, Shopping Website_src_app_shopping-cart_cart_cart.component.html.xes, Shopping Website_Online Shopping_App_Start_RouteConfig.cs.xes, Shopping Website_src_app_shopping-cart_order_order.component.scss.xes, Shopping Website_Online Shopping_Views_Shared__LayoutMaster.cshtml.xes, Shopping Website_Online Shopping_Views_Product_CreateProduct.cshtml.xes, Shopping Website_Online Shopping_Views_Product_Details.cshtml.xes, Shopping Website_src_app_shopping-cart_order_order.component.html.xes, Shopping Website_Online Shopping_Web.config.xes, Shopping Website_Online Shopping_Views_Product_Edit.cshtml.xes, Shopping Website_Online Shopping_Online Shopping.csproj.xes, Shopping Website_Online Shopping_Controllers_CategoryController.cs.xes</data>
			<data key="label">LEADS_TO</data>
		</edge>
		<edge id="20" source="6" target="5" label="LEADS_TO">
			<data key="artifact">Shopping Website_onlineshopping_src_main_webapp_WEB-INF_dispatcher-servlet.xml.xes</data>
			<data key="label">LEADS_TO</data>
		</edge>
		<edge id="21" source="2" target="4" label="LEADS_TO">
			<data key="artifact">Shopping Website_src_app_services_carts_cart.ts.xes, Shopping Website_src_app_app.component.ts.xes, Shopping Website_LICENSE.xes, Shopping Website_src_app_services_carts_cart.service.ts.xes, Shopping Website_src_app_shopping-cart_cart_cart.component.ts.xes, Shopping Website_src_app_shopping-cart_shopping-cart.component.ts.xes, Shopping Website_src_app_services_products_product.ts.xes, Shopping Website_src_app_services_products_products.service.ts.xes, Shopping Website_src_app_shopping-cart_shopping-filters_shopping-filters.component.ts.xes, Shopping Website_src_app_services_carts_Item.ts.xes, Shopping Website_src_app_shopping-cart_shopping-list_shopping-list.component.ts.xes</data>
			<data key="label">LEADS_TO</data>
		</edge>
		<edge id="22" source="1" target="3" label="LEADS_TO">
			<data key="artifact">Shopping Website_Online Shopping_Controllers_RegisterController.cs.xes, Shopping Website_src_app_services_carts_cart.ts.xes, Shopping Website_Online Shopping_Controllers_ProductController.cs.xes, Shopping Website_Online Shopping_Views_Home_Index.cshtml.xes, Shopping Website_onlineshopping_src_main_webapp_assets_css_myapp.css.xes, Shopping Website_Online Shopping DAL_Model1.Context.cs.xes, Shopping Website_Online Shopping_Views_Register_Register.cshtml.xes, Shopping Website_src_app_shopping-cart_shopping-cart.module.ts.xes, Shopping Website_package.json.xes, Shopping Website_src_app_services_carts_cart.service.ts.xes, Shopping Website_shoppingbackend_src_main_java_net_kzn_shoppingbackend_dto_Category.java.xes, Shopping Website_Online Shopping DAL_Online Shopping DAL.csproj.xes, Shopping Website_Online Shopping_Views_Shared__LayoutMaster.cshtml.xes, Shopping Website_src_app_shopping-cart_shopping-cart.component.html.xes, Shopping Website_src_app_shopping-cart_shopping-cart.component.ts.xes, Shopping Website_src_app_services_products_product.ts.xes, Shopping Website_src_app_services_products_products.service.ts.xes, Shopping Website_shoppingbackend_.project.xes, Shopping Website_src_app_shopping-cart_shopping-list_shopping-list.component.ts.xes, Shopping Website_Online Shopping DAL_Model1.edmx.diagram.xes, Shopping Website_Online Shopping DAL_Model1.edmx.xes, Shopping Website_Online Shopping_Online Shopping.csproj.xes, Shopping Website_Online Shopping_ViewModel_RegisterVM.cs.xes</data>
			<data key="label">LEADS_TO</data>
		</edge>
		<edge id="23" source="4" target="6" label="LEADS_TO">
			<data key="artifact">Shopping Website_shoppingbackend_databaseQueries.sql.xes</data>
			<data key="label">LEADS_TO</data>
		</edge>
		<edge id="24" source="2" target="3" label="LEADS_TO">
			<data key="artifact">Shopping Website_node_modules_@angular-devkit_build-angular_src_protractor_schema.json.xes, Shopping Website_node_modules_@angular-devkit_build-angular_src_angular-cli-files_models_jit-polyfills.js.xes, Shopping Website_node_modules_@angular-devkit_build-angular_src_angular-cli-files_plugins_webpack.js.xes, Shopping Website_node_modules_@angular-devkit_architect_test_browser_schema.js.xes, Shopping Website_node_modules_@angular-devkit_architect_test_builders.js.xes, Shopping Website_node_modules_@angular-devkit_build-angular_plugins_karma.js.xes, Shopping Website_node_modules_@angular-devkit_build-optimizer_node_modules_source-map_lib_util.js.xes, Shopping Website_node_modules_@angular-devkit_build-angular_src_angular-cli-files_plugins_bundle-budget.js.xes, Shopping Website_node_modules_@angular-devkit_core_node_cli-logger.d.ts.xes, Shopping Website_node_modules_@angular-devkit_build-angular_src_angular-cli-files_plugins_remove-hash-plugin.d.ts.xes, Shopping Website_node_modules_@angular-devkit_build-optimizer_node_modules_source-map_dist_source-map.debug.js.xes, Shopping Website_node_modules_.bin_parser.xes, Shopping Website_node_modules_.bin_karma.xes, Shopping Website_node_modules_@angular-devkit_architect_testing_test-logger.d.ts.xes, Shopping Website_node_modules_@angular-devkit_build-optimizer_node_modules_source-map_dist_source-map.min.js.xes, Shopping Website_node_modules_@angular-devkit_build-angular_src_angular-cli-files_models_webpack-configs_styles.d.ts.xes, Shopping Website_node_modules_@angular-devkit_build-angular_src_server_schema.json.xes, Shopping Website_node_modules_@angular-devkit_build-optimizer_node_modules_source-map_README.md.xes, Shopping Website_node_modules_.bin_rimraf.xes, Shopping Website_node_modules_@angular-devkit_build-webpack_src_webpack-dev-server_index.js.xes, Shopping Website_node_modules_@angular-devkit_build-optimizer_package.json.xes, Shopping Website_node_modules_.bin_sha.js.xes, Shopping Website_node_modules_@angular-devkit_build-webpack_builders.d.ts.xes, Shopping Website_node_modules_@angular-devkit_build-optimizer_src_helpers_ast-utils.js.xes, Shopping Website_node_modules_@angular-devkit_build-optimizer_src_transforms_scrub-file.js.xes, Shopping Website_node_modules_@angular-devkit_build-angular_src_utils_normalize-source-maps.d.ts.xes, Shopping Website_node_modules_@angular-devkit_build-angular_src_angular-cli-files_models_es2015-polyfills.js.xes, Shopping Website_node_modules_@angular-devkit_build-webpack_src_webpack-dev-server_index.d.ts.xes, Shopping Website_node_modules_.bin_uuid.xes, Shopping Website_node_modules_@angular-devkit_build-angular_src_server_schema.d.ts.xes, Shopping Website_node_modules_@angular-devkit_build-angular_src_index.js.xes, Shopping Website_node_modules_.bin_import-local-fixture.xes, Shopping Website_node_modules_.bin_node-gyp.xes, Shopping Website_node_modules_@angular-devkit_build-optimizer_src_transforms_class-fold.js.xes, Shopping Website_node_modules_@angular-devkit_build-optimizer_node_modules_source-map_lib_base64.js.xes, Shopping Website_node_modules_@angular-devkit_build-angular_src_angular-cli-files_models_webpack-configs_stats.js.xes, Shopping Website_node_modules_.bin_shjs.xes, Shopping Website_node_modules_@angular-devkit_build-angular_plugins_karma.d.ts.xes, Shopping Website_node_modules_@angular-devkit_build-optimizer_src_build-optimizer_cli.d.ts.xes, Shopping Website_node_modules_@angular-devkit_build-angular_src_utils_normalize-file-replacements.d.ts.xes, Shopping Website_node_modules_@angular-devkit_architect_src_architect-legacy.js.xes, Shopping Website_node_modules_@angular-devkit_build-angular_src_angular-cli-files_utilities_find-up.d.ts.xes, Shopping Website_node_modules_@angular-devkit_build-webpack_src_webpack-dev-server_schema.json.xes, Shopping Website_node_modules_@angular-devkit_build-angular_src_angular-cli-files_models_webpack-configs_browser.d.ts.xes, Shopping Website_node_modules_@angular-devkit_build-angular_src_browser_index.js.xes, Shopping Website_node_modules_@angular-devkit_architect_test_browser_index.js.xes, Shopping Website_node_modules_@angular-devkit_build-optimizer_node_modules_source-map_LICENSE.xes, Shopping Website_node_modules_@angular-devkit_build-angular_src_angular-cli-files_plugins_cleancss-webpack-plugin.js.xes, Shopping Website_node_modules_@angular-devkit_build-optimizer_node_modules_source-map_package.json.xes, Shopping Website_node_modules_@angular-devkit_build-angular_src_angular-cli-files_utilities_bundle-calculator.js.xes, Shopping Website_node_modules_@angular-devkit_build-angular_src_tslint_schema.d.ts.xes, Shopping Website_node_modules_@angular-devkit_build-angular_src_angular-cli-files_utilities_check-port.js.xes, Shopping Website_node_modules_@angular-devkit_build-angular_src_angular-cli-files_utilities_package-chunk-sort.d.ts.xes, Shopping Website_node_modules_@angular-devkit_build-optimizer_src_helpers_ast-utils.d.ts.xes, Shopping Website_node_modules_@angular-devkit_build-angular_src_tslint_schema.js.xes, Shopping Website_node_modules_@angular-devkit_core_README.md.xes, Shopping Website_node_modules_.bin_autoprefixer.xes, Shopping Website_node_modules_@angular-devkit_build-angular_src_protractor_index.js.xes, Shopping Website_node_modules_@angular-devkit_architect_src_targets-schema.d.ts.xes, Shopping Website_node_modules_@angular-devkit_build-optimizer_src_index.js.xes, Shopping Website_node_modules_@angular-devkit_build-optimizer_src_transforms_import-tslib.d.ts.xes, Shopping Website_node_modules_@angular-devkit_build-angular_src_angular-cli-files_models_webpack-configs_utils.d.ts.xes, Shopping Website_node_modules_@angular-devkit_build-angular_src_browser_schema.d.ts.xes, Shopping Website_node_modules_.bin_protractor.xes, Shopping Website_node_modules_.bin_uglifyjs.xes, Shopping Website_node_modules_@angular-devkit_architect_testing_request.d.ts.xes, Shopping Website_node_modules_@angular-devkit_build-angular_src_angular-cli-files_plugins_karma-webpack-failure-cb.js.xes, Shopping Website_node_modules_.bin_in-install.xes, Shopping Website_node_modules_@angular-devkit_build-optimizer_node_modules_source-map_lib_source-map-generator.js.xes, Shopping Website_node_modules_@angular-devkit_build-angular_src_angular-cli-files_models_webpack-configs_stats.d.ts.xes, Shopping Website_node_modules_@angular-devkit_build-optimizer_node_modules_source-map_lib_source-map-consumer.js.xes, Shopping Website_node_modules_@angular-devkit_build-angular_src_angular-cli-files_utilities_bundle-calculator.d.ts.xes, Shopping Website_node_modules_@angular-devkit_build-angular_src_angular-cli-files_models_webpack-configs_common.js.xes, Shopping Website_node_modules_@angular-devkit_build-optimizer_node_modules_source-map_lib_source-node.js.xes, Shopping Website_node_modules_@angular-devkit_build-optimizer_node_modules_source-map_lib_array-set.js.xes, Shopping Website_node_modules_.bin_esparse.xes, Shopping Website_node_modules_@angular-devkit_build-angular_src_extract-i18n_index.d.ts.xes, Shopping Website_node_modules_@angular-devkit_build-angular_src_angular-cli-files_plugins_index-html-webpack-plugin.d.ts.xes, Shopping Website_node_modules_@angular-devkit_build-webpack_builders.json.xes, Shopping Website_node_modules_@angular-devkit_build-webpack_src_test-utils.d.ts.xes, Shopping Website_node_modules_@angular-devkit_architect_test_builders.json.xes, Shopping Website_node_modules_@angular-devkit_build-angular_src_angular-cli-files_plugins_bundle-budget.d.ts.xes, Shopping Website_node_modules_@angular-devkit_build-optimizer_webpack-loader_package.json.xes, Shopping Website_node_modules_.bin_terser.xes, Shopping Website_node_modules_@angular-devkit_architect_test_package.json.xes, Shopping Website_node_modules_@angular-devkit_build-optimizer_src_transforms_prefix-functions.d.ts.xes, Shopping Website_node_modules_@angular-devkit_build-angular_builders.json.xes, Shopping Website_node_modules_@angular-devkit_build-optimizer_src_transforms_wrap-enums.d.ts.xes, Shopping Website_node_modules_@angular-devkit_build-angular_src_angular-cli-files_plugins_karma.d.ts.xes, Shopping Website_node_modules_@angular-devkit_build-angular_src_angular-cli-files_plugins_karma-debug.html.xes, Shopping Website_node_modules_@angular-devkit_architect_testing_index.js.xes, Shopping Website_node_modules_@angular-devkit_build-angular_src_utils_run-module-as-observable-fork.d.ts.xes, Shopping Website_node_modules_.bin_handlebars.xes, Shopping Website_node_modules_@angular-devkit_build-angular_src_utils_normalize-builder-schema.d.ts.xes, Shopping Website_node_modules_@angular-devkit_build-angular_src_app-shell_index.js.xes, Shopping Website_node_modules_@angular-devkit_architect_src_builders-schema.js.xes, Shopping Website_node_modules_@angular-devkit_build-angular_src_angular-cli-files_utilities_is-directory.d.ts.xes, Shopping Website_node_modules_.bin_regjsparser.xes, Shopping Website_node_modules_@angular-devkit_build-webpack_src_webpack_index.js.xes, Shopping Website_node_modules_@angular-devkit_build-angular_src_angular-cli-files_utilities_is-directory.js.xes, Shopping Website_node_modules_.bin_babylon.xes, Shopping Website_node_modules_@angular-devkit_build-angular_src_angular-cli-files_utilities_require-project-module.d.ts.xes, Shopping Website_node_modules_@angular-devkit_build-angular_src_angular-cli-files_utilities_service-worker_index.d.ts.xes, Shopping Website_node_modules_@angular-devkit_build-angular_src_utils_default-progress.js.xes, Shopping Website_node_modules_@angular-devkit_architect_LICENSE.xes, Shopping Website_node_modules_@angular-devkit_build-angular_src_angular-cli-files_plugins_postcss-cli-resources.js.xes, Shopping Website_node_modules_@angular-devkit_build-angular_src_angular-cli-files_utilities_require-project-module.js.xes, Shopping Website_node_modules_@angular-devkit_build-angular_src_protractor_index.d.ts.xes, Shopping Website_node_modules_@angular-devkit_build-webpack_src_webpack_index.d.ts.xes, Shopping Website_node_modules_.bin_nopt.xes, Shopping Website_node_modules_@angular-devkit_build-angular_src_karma_schema.json.xes, Shopping Website_node_modules_@angular-devkit_build-optimizer_LICENSE.xes, Shopping Website_node_modules_@angular-devkit_build-optimizer_node_modules_source-map_source-map.js.xes, Shopping Website_node_modules_.bin_atob.xes, Shopping Website_node_modules_@angular-devkit_build-optimizer_node_modules_source-map_lib_binary-search.js.xes, Shopping Website_node_modules_@angular-devkit_build-angular_src_utils_normalize-optimization.js.xes, Shopping Website_node_modules_@angular-devkit_build-optimizer_node_modules_source-map_CHANGELOG.md.xes, Shopping Website_node_modules_@angular-devkit_build-angular_src_server_index.js.xes, Shopping Website_node_modules_.bin_not-in-install.xes, Shopping Website_node_modules_@angular-devkit_build-webpack_src_webpack_schema.json.xes, Shopping Website_node_modules_@angular-devkit_build-angular_src_angular-cli-files_plugins_raw-css-loader.js.xes, Shopping Website_node_modules_@angular-devkit_build-angular_src_utils_normalize-asset-patterns.js.xes, Shopping Website_node_modules_@angular-devkit_build-optimizer_src_index.d.ts.xes, Shopping Website_node_modules_@angular-devkit_build-angular_src_angular-cli-files_utilities_read-tsconfig.js.xes, Shopping Website_node_modules_@angular-devkit_architect_testing_test-logger.js.xes, Shopping Website_node_modules_@angular-devkit_build-angular_src_browser_index.d.ts.xes, Shopping Website_node_modules_@angular-devkit_architect_testing_run-target-spec.d.ts.xes, Shopping Website_node_modules_@angular-devkit_build-angular_src_dev-server_index.d.ts.xes, Shopping Website_node_modules_.bin_miller-rabin.xes, Shopping Website_node_modules_.bin_strip-indent.xes, Shopping Website_node_modules_@angular-devkit_build-angular_src_angular-cli-files_models_webpack-configs_server.d.ts.xes, Shopping Website_node_modules_@angular-devkit_build-angular_src_angular-cli-files_plugins_suppress-entry-chunks-webpack-plugin.js.xes, Shopping Website_node_modules_@angular-devkit_build-optimizer_src__golden-api.d.ts.xes, Shopping Website_node_modules_.bin_sshpk-sign.xes, Shopping Website_node_modules_@angular-devkit_architect_test_browser_index.d.ts.xes, Shopping Website_node_modules_@angular-devkit_build-angular_src_angular-cli-files_plugins_webpack.d.ts.xes, Shopping Website_node_modules_@angular-devkit_architect_testing_request.js.xes, Shopping Website_node_modules_@angular-devkit_build-webpack_package.json.xes, Shopping Website_node_modules_@angular-devkit_architect_src_index.d.ts.xes, Shopping Website_node_modules_@angular-devkit_build-angular_src_index.d.ts.xes, Shopping Website_node_modules_.bin_js-yaml.xes, Shopping Website_node_modules_@angular-devkit_build-angular_src_app-shell_schema.json.xes, Shopping Website_node_modules_@angular-devkit_architect_test_browser_schema.d.ts.xes, Shopping Website_node_modules_@angular-devkit_build-angular_src_angular-cli-files_utilities_stats.js.xes, Shopping Website_.DS_Store.xes, Shopping Website_node_modules_@angular-devkit_architect_testing_index.d.ts.xes, Shopping Website_node_modules_.bin_which.xes, Shopping Website_node_modules_@angular-devkit_build-optimizer_node_modules_source-map_lib_base64-vlq.js.xes, Shopping Website_node_modules_@angular-devkit_build-angular_src_angular-cli-files_models_webpack-configs_index.d.ts.xes, Shopping Website_node_modules_@angular-devkit_build-angular_src_utils_index.d.ts.xes, Shopping Website_node_modules_@angular-devkit_build-optimizer_node_modules_source-map_dist_source-map.min.js.map.xes, Shopping Website_node_modules_@angular-devkit_build-angular_src_angular-cli-files_plugins_karma.js.xes, Shopping Website_node_modules_@angular-devkit_build-angular_src_angular-cli-files_utilities_service-worker_index.js.xes, Shopping Website_node_modules_@angular-devkit_build-angular_src_utils_normalize-asset-patterns.d.ts.xes, Shopping Website_node_modules_.bin_webdriver-manager.xes, Shopping Website_node_modules_@angular-devkit_build-angular_src_tslint_schema.json.xes, Shopping Website_node_modules_.bin_ng.xes, Shopping Website_node_modules_@angular-devkit_architect_testing_test-project-host.d.ts.xes, Shopping Website_node_modules_@angular-devkit_build-angular_src_utils_webpack-file-system-host-adapter.js.xes, Shopping Website_node_modules_@angular-devkit_build-angular_src_utils_normalize-file-replacements.js.xes, Shopping Website_node_modules_@angular-devkit_architect_src_targets-schema.js.xes, Shopping Website_node_modules_.bin_ts-node.xes, Shopping Website_node_modules_@angular-devkit_build-angular_src_utils_index.js.xes, Shopping Website_node_modules_@angular-devkit_build-angular_src_utils_normalize-builder-schema.js.xes, Shopping Website_node_modules_@angular-devkit_build-webpack_src_webpack-dev-server_schema.d.ts.xes, Shopping Website_node_modules_@angular-devkit_architect_src_builders-schema.d.ts.xes, Shopping Website_node_modules_@angular-devkit_build-webpack_src_index.d.ts.xes, Shopping Website_node_modules_.bin_cssesc.xes, Shopping Website_node_modules_@angular-devkit_build-angular_src_angular-cli-files_plugins_karma-webpack-failure-cb.d.ts.xes, Shopping Website_node_modules_@angular-devkit_core_LICENSE.xes, Shopping Website_node_modules_@angular-devkit_build-angular_src_angular-cli-files_utilities_strip-bom.d.ts.xes, Shopping Website_node_modules_@angular-devkit_build-optimizer_src_build-optimizer_webpack-loader.d.ts.xes, Shopping Website_node_modules_@angular-devkit_build-angular_src_angular-cli-files_models_webpack-configs_test.d.ts.xes, Shopping Website_node_modules_@angular-devkit_build-angular_src_extract-i18n_index.js.xes, Shopping Website_node_modules_.bin_acorn.xes, Shopping Website_node_modules_.bin_tsc.xes, Shopping Website_node_modules_@angular-devkit_build-optimizer_src_transforms_prefix-classes.js.xes, Shopping Website_node_modules_.bin_json5.xes, Shopping Website_node_modules_@angular-devkit_build-angular_README.md.xes, Shopping Website_node_modules_@angular-devkit_architect_test_builders.d.ts.xes, Shopping Website_node_modules_@angular-devkit_build-webpack_src_webpack_schema.d.ts.xes, Shopping Website_node_modules_@angular-devkit_build-angular_src_angular-cli-files_utilities_find-up.js.xes, Shopping Website_node_modules_.bin_loose-envify.xes, Shopping Website_node_modules_.bin_sshpk-verify.xes, Shopping Website_node_modules_@angular-devkit_build-angular_src_angular-cli-files_models_build-options.js.xes, Shopping Website_node_modules_@angular-devkit_build-angular_src_angular-cli-files_models_webpack-configs_browser.js.xes, Shopping Website_node_modules_@angular-devkit_build-angular_src_angular-cli-files_plugins_cleancss-webpack-plugin.d.ts.xes, Shopping Website_node_modules_@angular-devkit_build-optimizer_node_modules_source-map_lib_mapping-list.js.xes, Shopping Website_node_modules_@angular-devkit_build-optimizer_src_helpers_transform-javascript.d.ts.xes, Shopping Website_node_modules_.bin_tree-kill.xes, Shopping Website_node_modules_@angular-devkit_build-angular_src_utils_normalize-optimization.d.ts.xes, Shopping Website_node_modules_@angular-devkit_build-angular_src_angular-cli-files_models_webpack-configs_test.js.xes, Shopping Website_node_modules_.bin_sshpk-conv.xes, Shopping Website_node_modules_.bin_in-publish.xes, Shopping Website_node_modules_.bin_tsserver.xes, Shopping Website_node_modules_@angular-devkit_build-angular_src_angular-cli-files_plugins_remove-hash-plugin.js.xes, Shopping Website_node_modules_@angular-devkit_build-webpack_README.md.xes, Shopping Website_node_modules_.bin_tslint.xes, Shopping Website_node_modules_.bin_lessc.xes, Shopping Website_node_modules_.bin_ngc.xes, Shopping Website_node_modules_.bin_sassgraph.xes, Shopping Website_node_modules_@angular-devkit_build-angular_src_tslint_index.js.xes, Shopping Website_node_modules_.bin_browserslist.xes, Shopping Website_node_modules_@angular-devkit_build-webpack_src_index.js.xes, Shopping Website_node_modules_.bin_multicast-dns.xes, Shopping Website_node_modules_@angular-devkit_build-optimizer_src_transforms_prefix-classes.d.ts.xes, Shopping Website_node_modules_@angular-devkit_build-optimizer_src_helpers_transform-javascript.js.xes, Shopping Website_node_modules_.bin_ansi-html.xes, Shopping Website_node_modules_@angular-devkit_core_node__golden-api.js.xes, Shopping Website_node_modules_@angular-devkit_build-angular_src_utils_run-module-as-observable-fork.js.xes, Shopping Website_node_modules_@angular-devkit_build-angular_src_tslint_index.d.ts.xes, Shopping Website_node_modules_@angular-devkit_build-angular_src_angular-cli-files_models_webpack-configs_typescript.js.xes, Shopping Website_node_modules_@angular-devkit_build-angular_src_angular-cli-files_utilities_stats.d.ts.xes, Shopping Website_node_modules_@angular-devkit_architect_testing_test-project-host.js.xes, Shopping Website_node_modules_@angular-devkit_build-angular_src_angular-cli-files_models_webpack-configs_common.d.ts.xes, Shopping Website_node_modules_@angular-devkit_build-angular_package.json.xes, Shopping Website_node_modules_@angular-devkit_build-optimizer_src_build-optimizer_build-optimizer.d.ts.xes, Shopping Website_node_modules_@angular-devkit_build-angular_src_karma_schema.d.ts.xes, Shopping Website_node_modules_.bin_webpack-dev-server.xes, Shopping Website_node_modules_@angular-devkit_build-optimizer_src_transforms_class-fold.d.ts.xes, Shopping Website_node_modules_@angular-devkit_architect_src_index.js.xes, Shopping Website_node_modules_@angular-devkit_build-optimizer_src_build-optimizer_build-optimizer.js.xes, Shopping Website_node_modules_@angular-devkit_build-angular_test_utils.js.xes, Shopping Website_node_modules_.bin_node-sass.xes, Shopping Website_node_modules_.bin_not-in-publish.xes, Shopping Website_node_modules_.bin_build-optimizer.xes, Shopping Website_node_modules_@angular-devkit_build-angular_src_app-shell_schema.d.ts.xes, Shopping Website_node_modules_.bin_jasmine.xes, Shopping Website_node_modules_@angular-devkit_build-optimizer_src_build-optimizer_cli.js.xes, Shopping Website_node_modules_@angular-devkit_build-angular_LICENSE.xes, Shopping Website_node_modules_@angular-devkit_architect_src_builders-schema.json.xes, Shopping Website_node_modules_@angular-devkit_build-angular_src_angular-cli-files_utilities_read-tsconfig.d.ts.xes, Shopping Website_node_modules_@angular-devkit_build-angular_src_browser_schema.json.xes, Shopping Website_node_modules_@angular-devkit_build-angular_test_utils.d.ts.xes, Shopping Website_node_modules_@angular-devkit_build-angular_src_app-shell_index.d.ts.xes, Shopping Website_node_modules_@angular-devkit_build-angular_src_angular-cli-files_models_build-options.d.ts.xes, Shopping Website_node_modules_@angular-devkit_build-angular_src_angular-cli-files_plugins_raw-css-loader.d.ts.xes, Shopping Website_node_modules_@angular-devkit_build-optimizer_src__golden-api.js.xes, Shopping Website_node_modules_.bin_mkdirp.xes, Shopping Website_node_modules_@angular-devkit_build-angular_src_utils_webpack-file-system-host-adapter.d.ts.xes, Shopping Website_node_modules_@angular-devkit_build-angular_src_angular-cli-files_plugins_index-html-webpack-plugin.js.xes, Shopping Website_node_modules_@angular-devkit_build-angular_src_angular-cli-files_plugins_karma-context.html.xes, Shopping Website_node_modules_@angular-devkit_build-angular_src_angular-cli-files_utilities_package-chunk-sort.js.xes, Shopping Website_node_modules_@angular-devkit_core_node__golden-api.d.ts.xes, Shopping Website_node_modules_@angular-devkit_build-angular_src_angular-cli-files_plugins_scripts-webpack-plugin.js.xes, Shopping Website_node_modules_@angular-devkit_build-webpack_LICENSE.xes, Shopping Website_node_modules_.bin_semver.xes, Shopping Website_node_modules_@angular-devkit_architect_testing_run-target-spec.js.xes, Shopping Website_node_modules_.bin_ng-xi18n.xes, Shopping Website_node_modules_.bin_stylus.xes, Shopping Website_node_modules_@angular-devkit_architect_package.json.xes, Shopping Website_node_modules_@angular-devkit_build-angular_src_angular-cli-files_models_webpack-configs_typescript.d.ts.xes, Shopping Website_node_modules_@angular-devkit_build-optimizer_node_modules_source-map_dist_source-map.js.xes, Shopping Website_node_modules_@angular-devkit_build-angular_src_dev-server_index.js.xes, Shopping Website_node_modules_@angular-devkit_build-optimizer_node_modules_source-map_lib_quick-sort.js.xes, Shopping Website_node_modules_@angular-devkit_architect_src_targets-schema.json.xes, Shopping Website_node_modules_@angular-devkit_build-angular_src_angular-cli-files_models_webpack-configs_index.js.xes, Shopping Website_node_modules_@angular-devkit_architect_test_browser_schema.json.xes, Shopping Website_node_modules_@angular-devkit_build-angular_src_utils_run-module-worker.js.xes, Shopping Website_src_app_app-routing.module.ts.xes, Shopping Website_node_modules_.bin_blocking-proxy.xes, Shopping Website_node_modules_.bin_webpack.xes, Shopping Website_node_modules_@angular-devkit_build-optimizer_src_build-optimizer_webpack-loader.js.xes, Shopping Website_node_modules_@angular-devkit_build-angular_src_angular-cli-files_utilities_check-port.d.ts.xes, Shopping Website_node_modules_.bin_image-size.xes, Shopping Website_node_modules_@angular-devkit_build-angular_src_angular-cli-files_models_webpack-configs_utils.js.xes, Shopping Website_node_modules_@angular-devkit_build-optimizer_README.md.xes, Shopping Website_node_modules_@angular-devkit_build-angular_src_extract-i18n_schema.json.xes, Shopping Website_node_modules_@angular-devkit_build-optimizer_src_transforms_wrap-enums.js.xes, Shopping Website_node_modules_.bin_mime.xes, Shopping Website_node_modules_@angular-devkit_build-angular_builders.d.ts.xes, Shopping Website_node_modules_@angular-devkit_build-optimizer_src_build-optimizer_rollup-plugin.d.ts.xes, Shopping Website_node_modules_@angular-devkit_build-angular_src_utils_normalize-source-maps.js.xes, Shopping Website_node_modules_@angular-devkit_build-angular_src_karma_index.d.ts.xes, Shopping Website_node_modules_@angular-devkit_build-webpack_src_test-utils.js.xes, Shopping Website_node_modules_@angular-devkit_build-angular_src_angular-cli-files_plugins_postcss-cli-resources.d.ts.xes, Shopping Website_node_modules_.bin_jsesc.xes, Shopping Website_node_modules_@angular-devkit_build-angular_src_angular-cli-files_utilities_strip-bom.js.xes, Shopping Website_node_modules_@angular-devkit_architect_README.md.xes, Shopping Website_node_modules_.bin_errno.xes, Shopping Website_node_modules_@angular-devkit_build-angular_src_angular-cli-files_models_es2015-jit-polyfills.js.xes, Shopping Website_node_modules_@angular-devkit_build-angular_src_utils_default-progress.d.ts.xes, Shopping Website_node_modules_.bin_JSONStream.xes, Shopping Website_node_modules_@angular-devkit_build-optimizer_src_transforms_import-tslib.js.xes, Shopping Website_node_modules_.bin_esvalidate.xes, Shopping Website_node_modules_@angular-devkit_build-angular_src_angular-cli-files_models_webpack-configs_server.js.xes, Shopping Website_node_modules_@angular-devkit_build-angular_src_angular-cli-files_plugins_scripts-webpack-plugin.d.ts.xes, Shopping Website_node_modules_@angular-devkit_build-optimizer_src_transforms_prefix-functions.js.xes, Shopping Website_node_modules_@angular-devkit_build-optimizer_src_build-optimizer_rollup-plugin.js.xes, Shopping Website_node_modules_@angular-devkit_build-angular_src_server_index.d.ts.xes, Shopping Website_node_modules_@angular-devkit_build-webpack_builders.js.xes, Shopping Website_node_modules_@angular-devkit_build-angular_src_angular-cli-files_plugins_suppress-entry-chunks-webpack-plugin.d.ts.xes, Shopping Website_node_modules_@angular-devkit_build-angular_src_angular-cli-files_models_webpack-configs_styles.js.xes, Shopping Website_node_modules_@angular-devkit_build-optimizer_src_transforms_scrub-file.d.ts.xes, Shopping Website_node_modules_@angular-devkit_architect_src_architect-legacy.d.ts.xes, Shopping Website_node_modules_@angular-devkit_build-angular_builders.js.xes, Shopping Website_node_modules_@angular-devkit_build-angular_src_karma_index.js.xes, Shopping Website_node_modules_.bin_ivy-ngcc.xes, Shopping Website_node_modules_@angular-devkit_build-angular_src_dev-server_schema.json.xes</data>
			<data key="label">LEADS_TO</data>
		</edge>
		<edge id="25" source="1" target="1" label="LEADS_TO">
			<data key="artifact">Shopping Website_onlineshopping_src_main_webapp_assets_css_myapp.css.xes, Shopping Website_shoppingbackend_src_main_java_net_kzn_shoppingbackend_dto_Product.java.xes</data>
			<data key="label">LEADS_TO</data>
		</edge>
		<edge id="26" source="1" target="2" label="LEADS_TO">
			<data key="artifact">Shopping Website_src_app_shopping-cart_shopping-cart.component.ts.xes</data>
			<data key="label">LEADS_TO</data>
		</edge>
		<edge id="27" source="4" target="5" label="LEADS_TO">
			<data key="artifact">Shopping Website_Online Shopping_Controllers_ProductController.cs.xes, Shopping Website_onlineshopping_src_main_java_net_kzn_onlineshopping_controller_PageController.java.xes, Shopping Website_Online Shopping_Views_Category_CreateCategory.cshtml.xes, Shopping Website_Online Shopping_Views_Product_ShowProduct.cshtml.xes, Shopping Website_Online Shopping_Models_CategoryModel.cs.xes, Shopping Website_Online Shopping_Views_Shared__LayoutMaster.cshtml.xes, Shopping Website_Online Shopping_Models_ProductModel.cs.xes, Shopping Website_onlineshopping_src_main_webapp_assets_js_myapp.js.xes, Shopping Website_Online Shopping_Views_Product_CreateProduct.cshtml.xes, Shopping Website_Online Shopping_Web.config.xes, Shopping Website_Online Shopping_Views_Product_Edit.cshtml.xes, Shopping Website_Online Shopping_Online Shopping.csproj.xes, Shopping Website_Online Shopping_Controllers_CategoryController.cs.xes</data>
			<data key="label">LEADS_TO</data>
		</edge>
	</graph>
</graphml>