<?xml version="1.0" encoding="UTF-8"?>
<graphml xmlns="http://graphml.graphdrawing.org/xmlns">
	<key id="name" for="node" attr.name="name" attr.type="string"/>
	<key id="artifact" for="edge" attr.name="artifact" attr.type="string"/>
	<graph id="PM" edgedefault="directed">
		<node id="1" labels=":Activity">
			<data key="name">createControllers</data>
			<data key="labels">:Activity</data>
		</node>
		<node id="2" labels=":Activity">
			<data key="name">others</data>
			<data key="labels">:Activity</data>
		</node>
		<edge id="3" source="2" target="1" label="LEADS_TO">
			<data key="label">LEADS_TO</data>
		</edge>
	</graph>
</graphml>