<?xml version="1.0" encoding="UTF-8"?>
<graphml xmlns="http://graphml.graphdrawing.org/xmlns">
	<key id="name" for="node" attr.name="name" attr.type="string"/>
	<key id="artifact" for="edge" attr.name="artifact" attr.type="string"/>
	<graph id="PM" edgedefault="directed">
		<node id="1" labels=":Activity">
			<data key="name">mergeBranch</data>
			<data key="labels">:Activity</data>
		</node>
	</graph>
</graphml>