    [Define Component Requirements, Fix Components, Wire Components, Outline Instrumentation Model, Purchase Components, Define Electrical Specification, Define Specific ICD, Define Bench Configuration, Specify Electrical Model, Define Bench Specification, Validate Bench Configuration, Define Instrumentation Model]
T4  [0.0, 0.0, 0.0, 0.0, 0.0, 0.0, 0.261, 0.0, 0.0, 0.261, 0.0, 0.261]
A1  [0.508, 0.0, 0.0, 0.508, 0.0, 0.508, 0.0, 0.0, 0.0, 0.0, 0.0, 0.0]
BC2 [0.0, 0.0, 0.0, 0.0, 0.0, 0.0, 0.0, 0.513, 0.0, 0.0, 0.513, 0.0]
A2  [0.492, 0.0, 0.0, 0.492, 0.0, 0.492, 0.0, 0.0, 0.0, 0.0, 0.0, 0.0]
BC1 [0.0, 0.0, 0.0, 0.0, 0.0, 0.0, 0.0, 0.487, 0.0, 0.0, 0.487, 0.0]
ED1 [0.0, 0.0, 0.0, 0.0, 0.0, 0.0, 0.0, 0.0, 1.0, 0.0, 0.0, 0.0]
WT2 [0.0, 0.329, 0.329, 0.0, 0.0, 0.0, 0.0, 0.0, 0.0, 0.0, 0.0, 0.0]
WT1 [0.0, 0.356, 0.356, 0.0, 0.0, 0.0, 0.0, 0.0, 0.0, 0.0, 0.0, 0.0]
WT3 [0.0, 0.315, 0.315, 0.0, 0.0, 0.0, 0.0, 0.0, 0.0, 0.0, 0.0, 0.0]
T1  [0.0, 0.0, 0.0, 0.0, 0.0, 0.0, 0.238, 0.0, 0.0, 0.238, 0.0, 0.238]
S1  [0.0, 0.0, 0.0, 0.0, 1.0, 0.0, 0.0, 0.0, 0.0, 0.0, 0.0, 0.0]
T2  [0.0, 0.0, 0.0, 0.0, 0.0, 0.0, 0.246, 0.0, 0.0, 0.246, 0.0, 0.246]
T3  [0.0, 0.0, 0.0, 0.0, 0.0, 0.0, 0.255, 0.0, 0.0, 0.255, 0.0, 0.255]