<mxfile host="app.diagrams.net" modified="2023-06-26T09:43:36.948Z" agent="Mozilla/5.0 (X11; Linux x86_64) AppleWebKit/537.36 (KHTML, like Gecko) Chrome/110.0.0.0 Safari/537.36" version="21.5.0" pages="1">
  <diagram id="1n_F53SqJsbJG-LN5a4a" name="Page-1">
    <mxGraphModel dx="1399" dy="709" grid="1" gridSize="10" guides="1" tooltips="1" connect="1" arrows="1" fold="1" page="1" pageScale="1" pageWidth="1169" pageHeight="827" math="0" shadow="0">
      <root>
        <mxCell id="0" />
        <mxCell id="1" parent="0" />
        <mxCell id="activity-87" value="1" style="rounded=0;orthogonalLoop=1;jettySize=auto;html=1;entryX=0;entryY=0.5;entryDx=0;entryDy=0;" edge="1" parent="1" source="activity-18" target="activity-8">
          <mxGeometry relative="1" as="geometry" />
        </mxCell>
        <mxCell id="activity-88" value="1" style="rounded=0;orthogonalLoop=1;jettySize=auto;html=1;entryX=0;entryY=0.5;entryDx=0;entryDy=0;" edge="1" parent="1" source="activity-39" target="activity-19">
          <mxGeometry relative="1" as="geometry" />
        </mxCell>
        <mxCell id="activity-89" value="1" style="rounded=0;orthogonalLoop=1;jettySize=auto;html=1;entryX=0;entryY=0.5;entryDx=0;entryDy=0;" edge="1" parent="1" source="activity-42" target="activity-25">
          <mxGeometry relative="1" as="geometry" />
        </mxCell>
        <mxCell id="activity-90" value="1" style="rounded=0;orthogonalLoop=1;jettySize=auto;html=1;entryX=0;entryY=0.5;entryDx=0;entryDy=0;" edge="1" parent="1" source="activity-72" target="activity-79">
          <mxGeometry relative="1" as="geometry" />
        </mxCell>
        <mxCell id="activity-91" value="1" style="rounded=0;orthogonalLoop=1;jettySize=auto;html=1;entryX=0;entryY=0.5;entryDx=0;entryDy=0;" edge="1" parent="1" source="activity-3" target="activity-21">
          <mxGeometry relative="1" as="geometry" />
        </mxCell>
        <mxCell id="activity-92" value="1" style="rounded=0;orthogonalLoop=1;jettySize=auto;html=1;entryX=0;entryY=0.5;entryDx=0;entryDy=0;" edge="1" parent="1" source="activity-74" target="activity-12">
          <mxGeometry relative="1" as="geometry" />
        </mxCell>
        <mxCell id="activity-93" value="1" style="rounded=0;orthogonalLoop=1;jettySize=auto;html=1;entryX=0;entryY=0.5;entryDx=0;entryDy=0;" edge="1" parent="1" source="activity-11" target="activity-81">
          <mxGeometry relative="1" as="geometry" />
        </mxCell>
        <mxCell id="activity-94" value="1" style="rounded=0;orthogonalLoop=1;jettySize=auto;html=1;entryX=0;entryY=0.5;entryDx=0;entryDy=0;" edge="1" parent="1" source="activity-74" target="activity-11">
          <mxGeometry relative="1" as="geometry" />
        </mxCell>
        <mxCell id="activity-95" value="1" style="rounded=0;orthogonalLoop=1;jettySize=auto;html=1;entryX=0;entryY=0.5;entryDx=0;entryDy=0;" edge="1" parent="1" source="activity-23" target="activity-67">
          <mxGeometry relative="1" as="geometry" />
        </mxCell>
        <mxCell id="activity-96" value="1" style="rounded=0;orthogonalLoop=1;jettySize=auto;html=1;entryX=0;entryY=0.5;entryDx=0;entryDy=0;" edge="1" parent="1" source="activity-60" target="activity-17">
          <mxGeometry relative="1" as="geometry" />
        </mxCell>
        <mxCell id="activity-97" value="1" style="rounded=0;orthogonalLoop=1;jettySize=auto;html=1;entryX=0;entryY=0.5;entryDx=0;entryDy=0;" edge="1" parent="1" source="activity-50" target="activity-59">
          <mxGeometry relative="1" as="geometry" />
        </mxCell>
        <mxCell id="activity-98" value="1" style="rounded=0;orthogonalLoop=1;jettySize=auto;html=1;entryX=0;entryY=0.5;entryDx=0;entryDy=0;" edge="1" parent="1" source="activity-20" target="activity-76">
          <mxGeometry relative="1" as="geometry" />
        </mxCell>
        <mxCell id="activity-99" value="1" style="rounded=0;orthogonalLoop=1;jettySize=auto;html=1;entryX=0;entryY=0.5;entryDx=0;entryDy=0;" edge="1" parent="1" source="activity-28" target="activity-73">
          <mxGeometry relative="1" as="geometry" />
        </mxCell>
        <mxCell id="activity-100" value="1" style="rounded=0;orthogonalLoop=1;jettySize=auto;html=1;entryX=0;entryY=0.5;entryDx=0;entryDy=0;" edge="1" parent="1" source="activity-84" target="activity-65">
          <mxGeometry relative="1" as="geometry" />
        </mxCell>
        <mxCell id="activity-101" value="1" style="rounded=0;orthogonalLoop=1;jettySize=auto;html=1;entryX=0;entryY=0.5;entryDx=0;entryDy=0;" edge="1" parent="1" source="activity-84" target="activity-67">
          <mxGeometry relative="1" as="geometry" />
        </mxCell>
        <mxCell id="activity-102" value="1" style="rounded=0;orthogonalLoop=1;jettySize=auto;html=1;entryX=0;entryY=0.5;entryDx=0;entryDy=0;" edge="1" parent="1" source="activity-58" target="activity-60">
          <mxGeometry relative="1" as="geometry" />
        </mxCell>
        <mxCell id="activity-103" value="1" style="rounded=0;orthogonalLoop=1;jettySize=auto;html=1;entryX=0;entryY=0.5;entryDx=0;entryDy=0;" edge="1" parent="1" source="activity-42" target="activity-19">
          <mxGeometry relative="1" as="geometry" />
        </mxCell>
        <mxCell id="activity-104" value="1" style="rounded=0;orthogonalLoop=1;jettySize=auto;html=1;entryX=0;entryY=0.5;entryDx=0;entryDy=0;" edge="1" parent="1" source="activity-11" target="activity-12">
          <mxGeometry relative="1" as="geometry" />
        </mxCell>
        <mxCell id="activity-105" value="1" style="rounded=0;orthogonalLoop=1;jettySize=auto;html=1;entryX=0;entryY=0.5;entryDx=0;entryDy=0;" edge="1" parent="1" source="activity-4" target="activity-81">
          <mxGeometry relative="1" as="geometry" />
        </mxCell>
        <mxCell id="activity-106" value="1" style="rounded=0;orthogonalLoop=1;jettySize=auto;html=1;entryX=0;entryY=0.5;entryDx=0;entryDy=0;" edge="1" parent="1" source="activity-37" target="activity-60">
          <mxGeometry relative="1" as="geometry" />
        </mxCell>
        <mxCell id="activity-107" value="1" style="rounded=0;orthogonalLoop=1;jettySize=auto;html=1;entryX=0;entryY=0.5;entryDx=0;entryDy=0;" edge="1" parent="1" source="activity-59" target="activity-38">
          <mxGeometry relative="1" as="geometry" />
        </mxCell>
        <mxCell id="activity-108" value="1" style="rounded=0;orthogonalLoop=1;jettySize=auto;html=1;entryX=0;entryY=0.5;entryDx=0;entryDy=0;" edge="1" parent="1" source="activity-70" target="activity-68">
          <mxGeometry relative="1" as="geometry" />
        </mxCell>
        <mxCell id="activity-109" value="1" style="rounded=0;orthogonalLoop=1;jettySize=auto;html=1;entryX=0;entryY=0.5;entryDx=0;entryDy=0;" edge="1" parent="1" source="activity-16" target="activity-21">
          <mxGeometry relative="1" as="geometry" />
        </mxCell>
        <mxCell id="activity-110" value="1" style="rounded=0;orthogonalLoop=1;jettySize=auto;html=1;entryX=0;entryY=0.5;entryDx=0;entryDy=0;" edge="1" parent="1" source="activity-12" target="activity-61">
          <mxGeometry relative="1" as="geometry" />
        </mxCell>
        <mxCell id="activity-111" value="1" style="rounded=0;orthogonalLoop=1;jettySize=auto;html=1;entryX=0;entryY=0.5;entryDx=0;entryDy=0;" edge="1" parent="1" source="activity-49" target="activity-42">
          <mxGeometry relative="1" as="geometry" />
        </mxCell>
        <mxCell id="activity-112" value="1" style="rounded=0;orthogonalLoop=1;jettySize=auto;html=1;entryX=0;entryY=0.5;entryDx=0;entryDy=0;" edge="1" parent="1" source="activity-75" target="activity-71">
          <mxGeometry relative="1" as="geometry" />
        </mxCell>
        <mxCell id="activity-113" value="1" style="rounded=0;orthogonalLoop=1;jettySize=auto;html=1;entryX=0;entryY=0.5;entryDx=0;entryDy=0;" edge="1" parent="1" source="activity-11" target="activity-17">
          <mxGeometry relative="1" as="geometry" />
        </mxCell>
        <mxCell id="activity-114" value="1" style="rounded=0;orthogonalLoop=1;jettySize=auto;html=1;entryX=0;entryY=0.5;entryDx=0;entryDy=0;" edge="1" parent="1" source="activity-46" target="activity-57">
          <mxGeometry relative="1" as="geometry" />
        </mxCell>
        <mxCell id="activity-115" value="1" style="rounded=0;orthogonalLoop=1;jettySize=auto;html=1;entryX=0;entryY=0.5;entryDx=0;entryDy=0;" edge="1" parent="1" source="activity-21" target="activity-52">
          <mxGeometry relative="1" as="geometry" />
        </mxCell>
        <mxCell id="activity-116" value="1" style="rounded=0;orthogonalLoop=1;jettySize=auto;html=1;entryX=0;entryY=0.5;entryDx=0;entryDy=0;" edge="1" parent="1" source="activity-11" target="activity-61">
          <mxGeometry relative="1" as="geometry" />
        </mxCell>
        <mxCell id="activity-117" value="1" style="rounded=0;orthogonalLoop=1;jettySize=auto;html=1;entryX=0;entryY=0.5;entryDx=0;entryDy=0;" edge="1" parent="1" source="activity-20" target="activity-57">
          <mxGeometry relative="1" as="geometry" />
        </mxCell>
        <mxCell id="activity-118" value="1" style="rounded=0;orthogonalLoop=1;jettySize=auto;html=1;entryX=0;entryY=0.5;entryDx=0;entryDy=0;" edge="1" parent="1" source="activity-10" target="activity-11">
          <mxGeometry relative="1" as="geometry" />
        </mxCell>
        <mxCell id="activity-119" value="1" style="rounded=0;orthogonalLoop=1;jettySize=auto;html=1;entryX=0;entryY=0.5;entryDx=0;entryDy=0;" edge="1" parent="1" source="activity-59" target="activity-47">
          <mxGeometry relative="1" as="geometry" />
        </mxCell>
        <mxCell id="activity-120" value="1" style="rounded=0;orthogonalLoop=1;jettySize=auto;html=1;entryX=0;entryY=0.5;entryDx=0;entryDy=0;" edge="1" parent="1" source="activity-11" target="activity-60">
          <mxGeometry relative="1" as="geometry" />
        </mxCell>
        <mxCell id="activity-121" value="2" style="rounded=0;orthogonalLoop=1;jettySize=auto;html=1;entryX=0;entryY=0.5;entryDx=0;entryDy=0;" edge="1" parent="1" source="activity-34" target="activity-63">
          <mxGeometry relative="1" as="geometry" />
        </mxCell>
        <mxCell id="activity-122" value="1" style="rounded=0;orthogonalLoop=1;jettySize=auto;html=1;entryX=0;entryY=0.5;entryDx=0;entryDy=0;" edge="1" parent="1" source="activity-57" target="activity-21">
          <mxGeometry relative="1" as="geometry" />
        </mxCell>
        <mxCell id="activity-123" value="4" style="rounded=0;orthogonalLoop=1;jettySize=auto;html=1;entryX=0;entryY=0.5;entryDx=0;entryDy=0;" edge="1" parent="1" source="activity-59" target="activity-46">
          <mxGeometry relative="1" as="geometry" />
        </mxCell>
        <mxCell id="activity-124" value="1" style="rounded=0;orthogonalLoop=1;jettySize=auto;html=1;entryX=0;entryY=0.5;entryDx=0;entryDy=0;" edge="1" parent="1" source="activity-54" target="activity-36">
          <mxGeometry relative="1" as="geometry" />
        </mxCell>
        <mxCell id="activity-125" value="1" style="rounded=0;orthogonalLoop=1;jettySize=auto;html=1;entryX=0;entryY=0.5;entryDx=0;entryDy=0;" edge="1" parent="1" source="activity-81" target="activity-12">
          <mxGeometry relative="1" as="geometry" />
        </mxCell>
        <mxCell id="activity-126" value="2" style="rounded=0;orthogonalLoop=1;jettySize=auto;html=1;entryX=0;entryY=0.5;entryDx=0;entryDy=0;" edge="1" parent="1" source="activity-63" target="activity-20">
          <mxGeometry relative="1" as="geometry" />
        </mxCell>
        <mxCell id="activity-127" value="1" style="rounded=0;orthogonalLoop=1;jettySize=auto;html=1;entryX=0;entryY=0.5;entryDx=0;entryDy=0;" edge="1" parent="1" source="activity-48" target="activity-66">
          <mxGeometry relative="1" as="geometry" />
        </mxCell>
        <mxCell id="activity-128" value="6" style="rounded=0;orthogonalLoop=1;jettySize=auto;html=1;entryX=0;entryY=0.5;entryDx=0;entryDy=0;" edge="1" parent="1" source="activity-63" target="activity-21">
          <mxGeometry relative="1" as="geometry" />
        </mxCell>
        <mxCell id="activity-129" value="1" style="rounded=0;orthogonalLoop=1;jettySize=auto;html=1;entryX=0;entryY=0.5;entryDx=0;entryDy=0;" edge="1" parent="1" source="activity-59" target="activity-50">
          <mxGeometry relative="1" as="geometry" />
        </mxCell>
        <mxCell id="activity-130" value="1" style="rounded=0;orthogonalLoop=1;jettySize=auto;html=1;entryX=0;entryY=0.5;entryDx=0;entryDy=0;" edge="1" parent="1" source="activity-5" target="activity-79">
          <mxGeometry relative="1" as="geometry" />
        </mxCell>
        <mxCell id="activity-131" value="1" style="rounded=0;orthogonalLoop=1;jettySize=auto;html=1;entryX=0;entryY=0.5;entryDx=0;entryDy=0;" edge="1" parent="1" source="activity-28" target="activity-7">
          <mxGeometry relative="1" as="geometry" />
        </mxCell>
        <mxCell id="activity-132" value="2" style="rounded=0;orthogonalLoop=1;jettySize=auto;html=1;entryX=0;entryY=0.5;entryDx=0;entryDy=0;" edge="1" parent="1" source="activity-36" target="activity-78">
          <mxGeometry relative="1" as="geometry" />
        </mxCell>
        <mxCell id="activity-133" value="3" style="rounded=0;orthogonalLoop=1;jettySize=auto;html=1;entryX=0;entryY=0.5;entryDx=0;entryDy=0;" edge="1" parent="1" source="activity-56" target="activity-63">
          <mxGeometry relative="1" as="geometry" />
        </mxCell>
        <mxCell id="activity-134" value="1" style="rounded=0;orthogonalLoop=1;jettySize=auto;html=1;entryX=0;entryY=0.5;entryDx=0;entryDy=0;" edge="1" parent="1" source="activity-74" target="activity-44">
          <mxGeometry relative="1" as="geometry" />
        </mxCell>
        <mxCell id="activity-135" value="1" style="rounded=0;orthogonalLoop=1;jettySize=auto;html=1;entryX=0;entryY=0.5;entryDx=0;entryDy=0;" edge="1" parent="1" source="activity-79" target="activity-49">
          <mxGeometry relative="1" as="geometry" />
        </mxCell>
        <mxCell id="activity-136" value="1" style="rounded=0;orthogonalLoop=1;jettySize=auto;html=1;entryX=0;entryY=0.5;entryDx=0;entryDy=0;" edge="1" parent="1" source="activity-44" target="activity-11">
          <mxGeometry relative="1" as="geometry" />
        </mxCell>
        <mxCell id="activity-137" value="1" style="rounded=0;orthogonalLoop=1;jettySize=auto;html=1;entryX=0;entryY=0.5;entryDx=0;entryDy=0;" edge="1" parent="1" source="activity-60" target="activity-48">
          <mxGeometry relative="1" as="geometry" />
        </mxCell>
        <mxCell id="activity-138" value="1" style="rounded=0;orthogonalLoop=1;jettySize=auto;html=1;entryX=0;entryY=0.5;entryDx=0;entryDy=0;" edge="1" parent="1" source="activity-46" target="activity-34">
          <mxGeometry relative="1" as="geometry" />
        </mxCell>
        <mxCell id="activity-139" value="1" style="rounded=0;orthogonalLoop=1;jettySize=auto;html=1;entryX=0;entryY=0.5;entryDx=0;entryDy=0;" edge="1" parent="1" source="activity-3" target="activity-63">
          <mxGeometry relative="1" as="geometry" />
        </mxCell>
        <mxCell id="activity-140" value="3" style="rounded=0;orthogonalLoop=1;jettySize=auto;html=1;entryX=0;entryY=0.5;entryDx=0;entryDy=0;" edge="1" parent="1" source="activity-63" target="activity-46">
          <mxGeometry relative="1" as="geometry" />
        </mxCell>
        <mxCell id="activity-141" value="1" style="rounded=0;orthogonalLoop=1;jettySize=auto;html=1;entryX=0;entryY=0.5;entryDx=0;entryDy=0;" edge="1" parent="1" source="activity-83" target="activity-52">
          <mxGeometry relative="1" as="geometry" />
        </mxCell>
        <mxCell id="activity-142" value="1" style="rounded=0;orthogonalLoop=1;jettySize=auto;html=1;entryX=0;entryY=0.5;entryDx=0;entryDy=0;" edge="1" parent="1" source="activity-85" target="activity-70">
          <mxGeometry relative="1" as="geometry" />
        </mxCell>
        <mxCell id="activity-143" value="1" style="rounded=0;orthogonalLoop=1;jettySize=auto;html=1;entryX=0;entryY=0.5;entryDx=0;entryDy=0;" edge="1" parent="1" source="activity-11" target="activity-45">
          <mxGeometry relative="1" as="geometry" />
        </mxCell>
        <mxCell id="activity-144" value="1" style="rounded=0;orthogonalLoop=1;jettySize=auto;html=1;entryX=0;entryY=0.5;entryDx=0;entryDy=0;" edge="1" parent="1" source="activity-46" target="activity-28">
          <mxGeometry relative="1" as="geometry" />
        </mxCell>
        <mxCell id="activity-145" value="1" style="rounded=0;orthogonalLoop=1;jettySize=auto;html=1;entryX=0;entryY=0.5;entryDx=0;entryDy=0;" edge="1" parent="1" source="activity-19" target="activity-43">
          <mxGeometry relative="1" as="geometry" />
        </mxCell>
        <mxCell id="activity-146" value="1" style="rounded=0;orthogonalLoop=1;jettySize=auto;html=1;entryX=0;entryY=0.5;entryDx=0;entryDy=0;" edge="1" parent="1" source="activity-76" target="activity-83">
          <mxGeometry relative="1" as="geometry" />
        </mxCell>
        <mxCell id="activity-147" value="1" style="rounded=0;orthogonalLoop=1;jettySize=auto;html=1;entryX=0;entryY=0.5;entryDx=0;entryDy=0;" edge="1" parent="1" source="activity-2" target="activity-11">
          <mxGeometry relative="1" as="geometry" />
        </mxCell>
        <mxCell id="activity-148" value="1" style="rounded=0;orthogonalLoop=1;jettySize=auto;html=1;entryX=0;entryY=0.5;entryDx=0;entryDy=0;" edge="1" parent="1" source="activity-7" target="activity-21">
          <mxGeometry relative="1" as="geometry" />
        </mxCell>
        <mxCell id="activity-149" value="1" style="rounded=0;orthogonalLoop=1;jettySize=auto;html=1;entryX=0;entryY=0.5;entryDx=0;entryDy=0;" edge="1" parent="1" source="activity-58" target="activity-11">
          <mxGeometry relative="1" as="geometry" />
        </mxCell>
        <mxCell id="activity-150" value="1" style="rounded=0;orthogonalLoop=1;jettySize=auto;html=1;entryX=0;entryY=0.5;entryDx=0;entryDy=0;" edge="1" parent="1" source="activity-44" target="activity-81">
          <mxGeometry relative="1" as="geometry" />
        </mxCell>
        <mxCell id="activity-151" value="1" style="rounded=0;orthogonalLoop=1;jettySize=auto;html=1;entryX=0;entryY=0.5;entryDx=0;entryDy=0;" edge="1" parent="1" source="activity-74" target="activity-51">
          <mxGeometry relative="1" as="geometry" />
        </mxCell>
        <mxCell id="activity-152" value="1" style="rounded=0;orthogonalLoop=1;jettySize=auto;html=1;entryX=0;entryY=0.5;entryDx=0;entryDy=0;" edge="1" parent="1" source="activity-8" target="activity-71">
          <mxGeometry relative="1" as="geometry" />
        </mxCell>
        <mxCell id="activity-153" value="1" style="rounded=0;orthogonalLoop=1;jettySize=auto;html=1;entryX=0;entryY=0.5;entryDx=0;entryDy=0;" edge="1" parent="1" source="activity-11" target="activity-48">
          <mxGeometry relative="1" as="geometry" />
        </mxCell>
        <mxCell id="activity-154" value="1" style="rounded=0;orthogonalLoop=1;jettySize=auto;html=1;entryX=0;entryY=0.5;entryDx=0;entryDy=0;" edge="1" parent="1" source="activity-16" target="activity-7">
          <mxGeometry relative="1" as="geometry" />
        </mxCell>
        <mxCell id="activity-155" value="1" style="rounded=0;orthogonalLoop=1;jettySize=auto;html=1;entryX=0;entryY=0.5;entryDx=0;entryDy=0;" edge="1" parent="1" source="activity-84" target="activity-25">
          <mxGeometry relative="1" as="geometry" />
        </mxCell>
        <mxCell id="activity-156" value="1" style="rounded=0;orthogonalLoop=1;jettySize=auto;html=1;entryX=0;entryY=0.5;entryDx=0;entryDy=0;" edge="1" parent="1" source="activity-12" target="activity-9">
          <mxGeometry relative="1" as="geometry" />
        </mxCell>
        <mxCell id="activity-157" value="1" style="rounded=0;orthogonalLoop=1;jettySize=auto;html=1;entryX=0;entryY=0.5;entryDx=0;entryDy=0;" edge="1" parent="1" source="activity-16" target="activity-3">
          <mxGeometry relative="1" as="geometry" />
        </mxCell>
        <mxCell id="activity-158" value="1" style="rounded=0;orthogonalLoop=1;jettySize=auto;html=1;entryX=0;entryY=0.5;entryDx=0;entryDy=0;" edge="1" parent="1" source="activity-46" target="activity-21">
          <mxGeometry relative="1" as="geometry" />
        </mxCell>
        <mxCell id="activity-159" value="1" style="rounded=0;orthogonalLoop=1;jettySize=auto;html=1;entryX=0;entryY=0.5;entryDx=0;entryDy=0;" edge="1" parent="1" source="activity-65" target="activity-64">
          <mxGeometry relative="1" as="geometry" />
        </mxCell>
        <mxCell id="activity-160" value="1" style="rounded=0;orthogonalLoop=1;jettySize=auto;html=1;entryX=0;entryY=0.5;entryDx=0;entryDy=0;" edge="1" parent="1" source="activity-21" target="activity-83">
          <mxGeometry relative="1" as="geometry" />
        </mxCell>
        <mxCell id="activity-161" value="1" style="rounded=0;orthogonalLoop=1;jettySize=auto;html=1;entryX=0;entryY=0.5;entryDx=0;entryDy=0;" edge="1" parent="1" source="activity-46" target="activity-20">
          <mxGeometry relative="1" as="geometry" />
        </mxCell>
        <mxCell id="activity-162" value="1" style="rounded=0;orthogonalLoop=1;jettySize=auto;html=1;entryX=0;entryY=0.5;entryDx=0;entryDy=0;" edge="1" parent="1" source="activity-73" target="activity-7">
          <mxGeometry relative="1" as="geometry" />
        </mxCell>
        <mxCell id="activity-163" value="1" style="rounded=0;orthogonalLoop=1;jettySize=auto;html=1;entryX=0;entryY=0.5;entryDx=0;entryDy=0;" edge="1" parent="1" source="activity-3" target="activity-73">
          <mxGeometry relative="1" as="geometry" />
        </mxCell>
        <mxCell id="activity-164" value="1" style="rounded=0;orthogonalLoop=1;jettySize=auto;html=1;entryX=0;entryY=0.5;entryDx=0;entryDy=0;" edge="1" parent="1" source="activity-11" target="activity-53">
          <mxGeometry relative="1" as="geometry" />
        </mxCell>
        <mxCell id="activity-165" value="3" style="rounded=0;orthogonalLoop=1;jettySize=auto;html=1;entryX=0;entryY=0.5;entryDx=0;entryDy=0;" edge="1" parent="1" source="activity-63" target="activity-57">
          <mxGeometry relative="1" as="geometry" />
        </mxCell>
        <mxCell id="activity-166" value="1" style="rounded=0;orthogonalLoop=1;jettySize=auto;html=1;entryX=0;entryY=0.5;entryDx=0;entryDy=0;" edge="1" parent="1" source="activity-7" target="activity-30">
          <mxGeometry relative="1" as="geometry" />
        </mxCell>
        <mxCell id="activity-167" value="3" style="rounded=0;orthogonalLoop=1;jettySize=auto;html=1;entryX=0;entryY=0.5;entryDx=0;entryDy=0;" edge="1" parent="1" source="activity-59" target="activity-77">
          <mxGeometry relative="1" as="geometry" />
        </mxCell>
        <mxCell id="activity-168" value="1" style="rounded=0;orthogonalLoop=1;jettySize=auto;html=1;entryX=0;entryY=0.5;entryDx=0;entryDy=0;" edge="1" parent="1" source="activity-59" target="activity-76">
          <mxGeometry relative="1" as="geometry" />
        </mxCell>
        <mxCell id="activity-169" value="1" style="rounded=0;orthogonalLoop=1;jettySize=auto;html=1;entryX=0;entryY=0.5;entryDx=0;entryDy=0;" edge="1" parent="1" source="activity-77" target="activity-46">
          <mxGeometry relative="1" as="geometry" />
        </mxCell>
        <mxCell id="activity-170" value="1" style="rounded=0;orthogonalLoop=1;jettySize=auto;html=1;entryX=0;entryY=0.5;entryDx=0;entryDy=0;" edge="1" parent="1" source="activity-77" target="activity-47">
          <mxGeometry relative="1" as="geometry" />
        </mxCell>
        <mxCell id="activity-171" value="4" style="rounded=0;orthogonalLoop=1;jettySize=auto;html=1;entryX=0;entryY=0.5;entryDx=0;entryDy=0;" edge="1" parent="1" source="activity-47" target="activity-63">
          <mxGeometry relative="1" as="geometry" />
        </mxCell>
        <mxCell id="activity-172" value="1" style="rounded=0;orthogonalLoop=1;jettySize=auto;html=1;entryX=0;entryY=0.5;entryDx=0;entryDy=0;" edge="1" parent="1" source="activity-49" target="activity-84">
          <mxGeometry relative="1" as="geometry" />
        </mxCell>
        <mxCell id="activity-173" value="1" style="rounded=0;orthogonalLoop=1;jettySize=auto;html=1;entryX=0;entryY=0.5;entryDx=0;entryDy=0;" edge="1" parent="1" source="activity-46" target="activity-7">
          <mxGeometry relative="1" as="geometry" />
        </mxCell>
        <mxCell id="activity-174" value="1" style="rounded=0;orthogonalLoop=1;jettySize=auto;html=1;entryX=0;entryY=0.5;entryDx=0;entryDy=0;" edge="1" parent="1" source="activity-74" target="activity-61">
          <mxGeometry relative="1" as="geometry" />
        </mxCell>
        <mxCell id="activity-175" value="1" style="rounded=0;orthogonalLoop=1;jettySize=auto;html=1;entryX=0;entryY=0.5;entryDx=0;entryDy=0;" edge="1" parent="1" source="activity-74" target="activity-60">
          <mxGeometry relative="1" as="geometry" />
        </mxCell>
        <mxCell id="activity-176" value="1" style="rounded=0;orthogonalLoop=1;jettySize=auto;html=1;entryX=0;entryY=0.5;entryDx=0;entryDy=0;" edge="1" parent="1" source="activity-68" target="activity-60">
          <mxGeometry relative="1" as="geometry" />
        </mxCell>
        <mxCell id="activity-177" value="1" style="rounded=0;orthogonalLoop=1;jettySize=auto;html=1;entryX=0;entryY=0.5;entryDx=0;entryDy=0;" edge="1" parent="1" source="activity-84" target="activity-6">
          <mxGeometry relative="1" as="geometry" />
        </mxCell>
        <mxCell id="activity-178" value="1" style="rounded=0;orthogonalLoop=1;jettySize=auto;html=1;entryX=0;entryY=0.5;entryDx=0;entryDy=0;" edge="1" parent="1" source="activity-19" target="activity-6">
          <mxGeometry relative="1" as="geometry" />
        </mxCell>
        <mxCell id="activity-179" value="1" style="rounded=0;orthogonalLoop=1;jettySize=auto;html=1;entryX=0;entryY=0.5;entryDx=0;entryDy=0;" edge="1" parent="1" source="activity-34" target="activity-21">
          <mxGeometry relative="1" as="geometry" />
        </mxCell>
        <mxCell id="activity-180" value="3" style="rounded=0;orthogonalLoop=1;jettySize=auto;html=1;entryX=0;entryY=0.5;entryDx=0;entryDy=0;" edge="1" parent="1" source="activity-38" target="activity-63">
          <mxGeometry relative="1" as="geometry" />
        </mxCell>
        <mxCell id="activity-181" value="1" style="rounded=0;orthogonalLoop=1;jettySize=auto;html=1;entryX=0;entryY=0.5;entryDx=0;entryDy=0;" edge="1" parent="1" source="activity-76" target="activity-21">
          <mxGeometry relative="1" as="geometry" />
        </mxCell>
        <mxCell id="activity-182" value="1" style="rounded=0;orthogonalLoop=1;jettySize=auto;html=1;entryX=0;entryY=0.5;entryDx=0;entryDy=0;" edge="1" parent="1" source="activity-73" target="activity-21">
          <mxGeometry relative="1" as="geometry" />
        </mxCell>
        <mxCell id="activity-183" value="1" style="rounded=0;orthogonalLoop=1;jettySize=auto;html=1;entryX=0;entryY=0.5;entryDx=0;entryDy=0;" edge="1" parent="1" source="activity-24" target="activity-56">
          <mxGeometry relative="1" as="geometry" />
        </mxCell>
        <mxCell id="activity-184" value="1" style="rounded=0;orthogonalLoop=1;jettySize=auto;html=1;entryX=0;entryY=0.5;entryDx=0;entryDy=0;" edge="1" parent="1" source="activity-34" target="activity-28">
          <mxGeometry relative="1" as="geometry" />
        </mxCell>
        <mxCell id="activity-185" value="1" style="rounded=0;orthogonalLoop=1;jettySize=auto;html=1;entryX=0;entryY=0.5;entryDx=0;entryDy=0;" edge="1" parent="1" source="activity-11" target="activity-26">
          <mxGeometry relative="1" as="geometry" />
        </mxCell>
        <mxCell id="activity-186" value="1" style="rounded=0;orthogonalLoop=1;jettySize=auto;html=1;entryX=0;entryY=0.5;entryDx=0;entryDy=0;" edge="1" parent="1" source="activity-41" target="activity-71">
          <mxGeometry relative="1" as="geometry" />
        </mxCell>
        <mxCell id="activity-187" value="1" style="rounded=0;orthogonalLoop=1;jettySize=auto;html=1;entryX=0;entryY=0.5;entryDx=0;entryDy=0;" edge="1" parent="1" source="activity-11" target="activity-27">
          <mxGeometry relative="1" as="geometry" />
        </mxCell>
        <mxCell id="activity-188" value="1" style="rounded=0;orthogonalLoop=1;jettySize=auto;html=1;entryX=0;entryY=0.5;entryDx=0;entryDy=0;" edge="1" parent="1" source="activity-34" target="activity-7">
          <mxGeometry relative="1" as="geometry" />
        </mxCell>
        <mxCell id="activity-189" value="1" style="rounded=0;orthogonalLoop=1;jettySize=auto;html=1;entryX=0;entryY=0.5;entryDx=0;entryDy=0;" edge="1" parent="1" source="activity-47" target="activity-55">
          <mxGeometry relative="1" as="geometry" />
        </mxCell>
        <mxCell id="activity-190" value="9" style="rounded=0;orthogonalLoop=1;jettySize=auto;html=1;entryX=0;entryY=0.5;entryDx=0;entryDy=0;" edge="1" parent="1" source="activity-63" target="activity-63">
          <mxGeometry relative="1" as="geometry" />
        </mxCell>
        <mxCell id="activity-191" value="1" style="rounded=0;orthogonalLoop=1;jettySize=auto;html=1;entryX=0;entryY=0.5;entryDx=0;entryDy=0;" edge="1" parent="1" source="activity-85" target="activity-11">
          <mxGeometry relative="1" as="geometry" />
        </mxCell>
        <mxCell id="activity-192" value="1" style="rounded=0;orthogonalLoop=1;jettySize=auto;html=1;entryX=0;entryY=0.5;entryDx=0;entryDy=0;" edge="1" parent="1" source="activity-1" target="activity-71">
          <mxGeometry relative="1" as="geometry" />
        </mxCell>
        <mxCell id="activity-193" value="1" style="rounded=0;orthogonalLoop=1;jettySize=auto;html=1;entryX=0;entryY=0.5;entryDx=0;entryDy=0;" edge="1" parent="1" source="activity-7" target="activity-57">
          <mxGeometry relative="1" as="geometry" />
        </mxCell>
        <mxCell id="activity-194" value="1" style="rounded=0;orthogonalLoop=1;jettySize=auto;html=1;entryX=0;entryY=0.5;entryDx=0;entryDy=0;" edge="1" parent="1" source="activity-11" target="activity-31">
          <mxGeometry relative="1" as="geometry" />
        </mxCell>
        <mxCell id="activity-195" value="1" style="rounded=0;orthogonalLoop=1;jettySize=auto;html=1;entryX=0;entryY=0.5;entryDx=0;entryDy=0;" edge="1" parent="1" source="activity-11" target="activity-32">
          <mxGeometry relative="1" as="geometry" />
        </mxCell>
        <mxCell id="activity-196" value="5" style="rounded=0;orthogonalLoop=1;jettySize=auto;html=1;entryX=0;entryY=0.5;entryDx=0;entryDy=0;" edge="1" parent="1" source="activity-77" target="activity-63">
          <mxGeometry relative="1" as="geometry" />
        </mxCell>
        <mxCell id="activity-197" value="1" style="rounded=0;orthogonalLoop=1;jettySize=auto;html=1;entryX=0;entryY=0.5;entryDx=0;entryDy=0;" edge="1" parent="1" source="activity-4" target="activity-61">
          <mxGeometry relative="1" as="geometry" />
        </mxCell>
        <mxCell id="activity-198" value="1" style="rounded=0;orthogonalLoop=1;jettySize=auto;html=1;entryX=0;entryY=0.5;entryDx=0;entryDy=0;" edge="1" parent="1" source="activity-8" target="activity-23">
          <mxGeometry relative="1" as="geometry" />
        </mxCell>
        <mxCell id="activity-199" value="1" style="rounded=0;orthogonalLoop=1;jettySize=auto;html=1;entryX=0;entryY=0.5;entryDx=0;entryDy=0;" edge="1" parent="1" source="activity-57" target="activity-76">
          <mxGeometry relative="1" as="geometry" />
        </mxCell>
        <mxCell id="activity-200" value="1" style="rounded=0;orthogonalLoop=1;jettySize=auto;html=1;entryX=0;entryY=0.5;entryDx=0;entryDy=0;" edge="1" parent="1" source="activity-49" target="activity-65">
          <mxGeometry relative="1" as="geometry" />
        </mxCell>
        <mxCell id="activity-201" value="1" style="rounded=0;orthogonalLoop=1;jettySize=auto;html=1;entryX=0;entryY=0.5;entryDx=0;entryDy=0;" edge="1" parent="1" source="activity-31" target="activity-27">
          <mxGeometry relative="1" as="geometry" />
        </mxCell>
        <mxCell id="activity-202" value="1" style="rounded=0;orthogonalLoop=1;jettySize=auto;html=1;entryX=0;entryY=0.5;entryDx=0;entryDy=0;" edge="1" parent="1" source="activity-55" target="activity-59">
          <mxGeometry relative="1" as="geometry" />
        </mxCell>
        <mxCell id="activity-203" value="1" style="rounded=0;orthogonalLoop=1;jettySize=auto;html=1;entryX=0;entryY=0.5;entryDx=0;entryDy=0;" edge="1" parent="1" source="activity-34" target="activity-16">
          <mxGeometry relative="1" as="geometry" />
        </mxCell>
        <mxCell id="activity-204" value="1" style="rounded=0;orthogonalLoop=1;jettySize=auto;html=1;entryX=0;entryY=0.5;entryDx=0;entryDy=0;" edge="1" parent="1" source="activity-30" target="activity-57">
          <mxGeometry relative="1" as="geometry" />
        </mxCell>
        <mxCell id="activity-205" value="1" style="rounded=0;orthogonalLoop=1;jettySize=auto;html=1;entryX=0;entryY=0.5;entryDx=0;entryDy=0;" edge="1" parent="1" source="activity-47" target="activity-46">
          <mxGeometry relative="1" as="geometry" />
        </mxCell>
        <mxCell id="activity-206" value="1" style="rounded=0;orthogonalLoop=1;jettySize=auto;html=1;entryX=0;entryY=0.5;entryDx=0;entryDy=0;" edge="1" parent="1" source="activity-84" target="activity-39">
          <mxGeometry relative="1" as="geometry" />
        </mxCell>
        <mxCell id="activity-207" value="1" style="rounded=0;orthogonalLoop=1;jettySize=auto;html=1;entryX=0;entryY=0.5;entryDx=0;entryDy=0;" edge="1" parent="1" source="activity-29" target="activity-71">
          <mxGeometry relative="1" as="geometry" />
        </mxCell>
        <mxCell id="activity-208" value="1" style="rounded=0;orthogonalLoop=1;jettySize=auto;html=1;entryX=0;entryY=0.5;entryDx=0;entryDy=0;" edge="1" parent="1" source="activity-64" target="activity-43">
          <mxGeometry relative="1" as="geometry" />
        </mxCell>
        <mxCell id="activity-1" value="css" style="rounded=0;whiteSpace=wrap;html=1;" vertex="1" parent="1">
          <mxGeometry x="120" y="80" width="120" height="60" as="geometry" />
        </mxCell>
        <mxCell id="activity-71" value="Merge branch 'master' of https://github.com/Ecommerce-Qdu/Ecommerce" style="rounded=0;whiteSpace=wrap;html=1;" vertex="1" parent="1">
          <mxGeometry x="360" y="80" width="120" height="60" as="geometry" />
        </mxCell>
      </root>
    </mxGraphModel>
  </diagram>
</mxfile>