[
    {
        "name": "fitness",
        "weight": 1,
        "function": "max"
    },
    {
        "name": "simplicity",
        "weight": 1,
        "function": "max"
    },
    {
        "name": "generalization",
        "weight": 1,
        "function": "max"
    },
    {
        "name": "precision",
        "weight": 1,
        "function": "max"
    }
]